%YAML 1.1
%TAG !u! tag:unity3d.com,2011:
--- !u!21 &2100000
Material:
  serializedVersion: 6
  m_ObjectHideFlags: 0
  m_CorrespondingSourceObject: {fileID: 0}
  m_PrefabInstance: {fileID: 0}
  m_PrefabAsset: {fileID: 0}
  m_Name: MAT_WaterTest1
  m_Shader: {fileID: -6465566751694194690, guid: 96f09eaf463ab1846bf10b733b06a4e4, type: 3}
  m_ShaderKeywords: 
  m_LightmapFlags: 4
  m_EnableInstancingVariants: 0
  m_DoubleSidedGI: 0
  m_CustomRenderQueue: -1
  stringTagMap: {}
  disabledShaderPasses: []
  m_SavedProperties:
    serializedVersion: 3
    m_TexEnvs:
    - unity_Lightmaps:
        m_Texture: {fileID: 0}
        m_Scale: {x: 1, y: 1}
        m_Offset: {x: 0, y: 0}
    - unity_LightmapsInd:
        m_Texture: {fileID: 0}
        m_Scale: {x: 1, y: 1}
        m_Offset: {x: 0, y: 0}
    - unity_ShadowMasks:
        m_Texture: {fileID: 0}
        m_Scale: {x: 1, y: 1}
        m_Offset: {x: 0, y: 0}
    m_Floats:
    - Vector1_bad80875e906472a983ba60a8a6c8ed4: 9.4
    - Vector1_c69b90c0091948ef9dc938a0c66c42e6: 3.34
    m_Colors:
    - Color_58f87cf97f82482d99734a3c8bd13a05: {r: 0.7075472, g: 0.6901923, b: 0.6901923, a: 0}
    - Color_6ff0c3c605784c1d9832860092d29430: {r: 0.19184756, g: 0.31853217, b: 0.32075468, a: 0}
    - Color_b269b9988ffc49758985e3ec6f4211c3: {r: 0.36966884, g: 0.5566037, b: 0.5443054, a: 0}
  m_BuildTextureStacks: []
