%YAML 1.1
%TAG !u! tag:unity3d.com,2011:
--- !u!21 &2100000
Material:
  serializedVersion: 6
  m_ObjectHideFlags: 0
  m_CorrespondingSourceObject: {fileID: 0}
  m_PrefabInstance: {fileID: 0}
  m_PrefabAsset: {fileID: 0}
  m_Name: MAT_WaterShader
  m_Shader: {fileID: -6465566751694194690, guid: e5dc31758db11e4458797c5ae084bf22, type: 3}
  m_ShaderKeywords: 
  m_LightmapFlags: 4
  m_EnableInstancingVariants: 0
  m_DoubleSidedGI: 0
  m_CustomRenderQueue: 3001
  stringTagMap: {}
  disabledShaderPasses: []
  m_SavedProperties:
    serializedVersion: 3
    m_TexEnvs:
    - _FlowMap:
        m_Texture: {fileID: 2800000, guid: b5a3094051c2f5249b5177737504a1fc, type: 3}
        m_Scale: {x: 1, y: 1}
        m_Offset: {x: 0, y: 0}
    - _FoamTex:
        m_Texture: {fileID: 2800000, guid: 88cbd3fdc23076849b839a98d84f1caa, type: 3}
        m_Scale: {x: 1, y: 1}
        m_Offset: {x: 0, y: 0}
    - unity_Lightmaps:
        m_Texture: {fileID: 0}
        m_Scale: {x: 1, y: 1}
        m_Offset: {x: 0, y: 0}
    - unity_LightmapsInd:
        m_Texture: {fileID: 0}
        m_Scale: {x: 1, y: 1}
        m_Offset: {x: 0, y: 0}
    - unity_ShadowMasks:
        m_Texture: {fileID: 0}
        m_Scale: {x: 1, y: 1}
        m_Offset: {x: 0, y: 0}
    m_Floats:
    - Vector1_6755c866d0264dff8157c5593ea97448: 0.94
    - Vector1_835d3a6c33a04be993ce27fd9506e88e: 0.01
    - Vector1_901f7ecb30324faab65bff2aca4b79a1: 1
    - Vector1_908f909b037d4cfdb6612a87dfb1e5a2: 0
    - Vector1_9862fe21b54b476fbfdfd9e45c0c8848: 0
    - Vector1_bb32be5867004ecb9c7d98fb08f7ed99: 0.066
    - Vector1_db224654932544e489a1ea40c707ea3c: 0
    - Vector1_ed84e1e88da140fd89bfbf3b25a72cf0: 0.00133
    - _Choppiness: 0.18
    - _FlowSpeed: 0
    - _FlowStrength: 0.33
    - _FoamDistance: 1
    - _Opacity: 0.131
    - _Size: 20.4
    m_Colors:
    - _DarkFoamColor: {r: 0.047169805, g: 0.047169805, b: 0.047169805, a: 1}
    - _LightFoamColor: {r: 1, g: 1, b: 1, a: 1}
    - _WaterColor: {r: 0.2621111, g: 0.6365556, b: 0.674, a: 1}
  m_BuildTextureStacks: []
