%YAML 1.1
%TAG !u! tag:unity3d.com,2011:
--- !u!21 &2100000
Material:
  serializedVersion: 6
  m_ObjectHideFlags: 0
  m_CorrespondingSourceObject: {fileID: 0}
  m_PrefabInstance: {fileID: 0}
  m_PrefabAsset: {fileID: 0}
  m_Name: MAT_Mushroom
  m_Shader: {fileID: -6465566751694194690, guid: 8ea755d24b96c6245a2ed1047dceff7f, type: 3}
  m_ShaderKeywords: 
  m_LightmapFlags: 2
  m_EnableInstancingVariants: 0
  m_DoubleSidedGI: 0
  m_CustomRenderQueue: -1
  stringTagMap: {}
  disabledShaderPasses: []
  m_SavedProperties:
    serializedVersion: 3
    m_TexEnvs:
    - unity_Lightmaps:
        m_Texture: {fileID: 0}
        m_Scale: {x: 1, y: 1}
        m_Offset: {x: 0, y: 0}
    - unity_LightmapsInd:
        m_Texture: {fileID: 0}
        m_Scale: {x: 1, y: 1}
        m_Offset: {x: 0, y: 0}
    - unity_ShadowMasks:
        m_Texture: {fileID: 0}
        m_Scale: {x: 1, y: 1}
        m_Offset: {x: 0, y: 0}
    m_Floats:
    - Vector1_8569ac1e84394a2bb959eaf65681387a: 2
    - Vector1_AAE38331: 0.242
    - Vector1_D15E557F: 0.47
    - Vector1_Heat: 0
    - Vector1_b46eaa6f0a1d4cbfbf2c3e05a0a830f1: 38.9
    m_Colors:
    - Color_0f8adf9c52f5427b912d1257acdc93e3: {r: 0, g: 0.034961086, b: 4.564447, a: 0}
    - Color_8a981fb11f8e439da7a4a8d5d9e81598: {r: 0.3372549, g: 0.25882354, b: 1.7411765, a: 0}
    - Color_8f83e86024ef46b4acee780c378298d8: {r: 1, g: 1, b: 1, a: 0}
  m_BuildTextureStacks: []
