%YAML 1.1
%TAG !u! tag:unity3d.com,2011:
--- !u!21 &2100000
Material:
  serializedVersion: 6
  m_ObjectHideFlags: 0
  m_CorrespondingSourceObject: {fileID: 0}
  m_PrefabInstance: {fileID: 0}
  m_PrefabAsset: {fileID: 0}
  m_Name: MAT_TreeLeaf
  m_Shader: {fileID: -6465566751694194690, guid: 928f5edbb0f41ff4eb81d291269fbdca, type: 3}
  m_ShaderKeywords: 
  m_LightmapFlags: 4
  m_EnableInstancingVariants: 0
  m_DoubleSidedGI: 0
  m_CustomRenderQueue: 2999
  stringTagMap: {}
  disabledShaderPasses: []
  m_SavedProperties:
    serializedVersion: 3
    m_TexEnvs:
    - _SampleTexture2D_42e896166748b48bbf0a0cbed89355e3_Texture_1:
        m_Texture: {fileID: 2800000, guid: 719a554eb3950554997885fc91277ef6, type: 3}
        m_Scale: {x: 1, y: 1}
        m_Offset: {x: 0, y: 0}
    - unity_Lightmaps:
        m_Texture: {fileID: 0}
        m_Scale: {x: 1, y: 1}
        m_Offset: {x: 0, y: 0}
    - unity_LightmapsInd:
        m_Texture: {fileID: 0}
        m_Scale: {x: 1, y: 1}
        m_Offset: {x: 0, y: 0}
    - unity_ShadowMasks:
        m_Texture: {fileID: 0}
        m_Scale: {x: 1, y: 1}
        m_Offset: {x: 0, y: 0}
    m_Floats:
    - Tree_Leaf_Dry: 0
    - Vector1_0eea3919d0364f86a505af964fb1ee4f: 1
    - Vector1_2b2d9b46fae1468383da88c619ce6708: 3.1
    - Vector1_2dbdd04f6f6e4468bd7481383b0a4f44: 2
    - Vector1_3471bb37fabb47e4b55ff785253a1425: 10
    - Vector1_40ec3f441df04868bb8307825f8911b6: -3.33
    - Vector1_634393ac183c45228648ce08091b3783: 10
    - Vector1_6efa7effd4bd4e32af5f5f0a55947672: 0
    - Vector1_929a99a1ee0944dda8032dffd7311065: 3
    - Vector1_Growing: 1
    - Vector1_GrowingFactor: 1
    - Vector1_GrowingLeaf: 0.527
    - Vector1_a4458bd0eae44babaffc2c93273cb751: 4.25
    - Vector1_c37dca6e95a648caa59025ad2f88114b: 1
    - Vector1_f204e3eb1c484658b97a248cdf08fc70: -1
    - Vector1_growingleaf: 0
    m_Colors:
    - Color_19C6C157: {r: 0.23173726, g: 0.4433962, b: 0.3442648, a: 0}
    - Color_4adab5298f534296a777e05eba583dca: {r: 0.13782477, g: 0.27358484, b: 0.14239186, a: 0}
  m_BuildTextureStacks: []
