%YAML 1.1
%TAG !u! tag:unity3d.com,2011:
--- !u!21 &2100000
Material:
  serializedVersion: 6
  m_ObjectHideFlags: 0
  m_CorrespondingSourceObject: {fileID: 0}
  m_PrefabInstance: {fileID: 0}
  m_PrefabAsset: {fileID: 0}
  m_Name: MAT_PlantTrunk
  m_Shader: {fileID: -6465566751694194690, guid: 40e003270213fef4db45db352304b8e5, type: 3}
  m_ShaderKeywords: 
  m_LightmapFlags: 4
  m_EnableInstancingVariants: 0
  m_DoubleSidedGI: 0
  m_CustomRenderQueue: 2999
  stringTagMap: {}
  disabledShaderPasses: []
  m_SavedProperties:
    serializedVersion: 3
    m_TexEnvs:
    - _SampleTexture2D_be75cdf96c8642f4940baba4439aca78_Texture_1:
        m_Texture: {fileID: 2800000, guid: 61dfeded2290b714fa30b3df108e7609, type: 3}
        m_Scale: {x: 1, y: 1}
        m_Offset: {x: 0, y: 0}
    - unity_Lightmaps:
        m_Texture: {fileID: 0}
        m_Scale: {x: 1, y: 1}
        m_Offset: {x: 0, y: 0}
    - unity_LightmapsInd:
        m_Texture: {fileID: 0}
        m_Scale: {x: 1, y: 1}
        m_Offset: {x: 0, y: 0}
    - unity_ShadowMasks:
        m_Texture: {fileID: 0}
        m_Scale: {x: 1, y: 1}
        m_Offset: {x: 0, y: 0}
    m_Floats:
    - Plant_Trunk_Dry: 0
    - Vector1_62130d69ea4249a68ee5bb5323814577: -0.241
    - Vector1_97b67c0a749d429b89de6f7b9e07b014: 1.237
    - Vector1_Dry: 0.75
    - Vector1_GrowingFactor: 0.5
    - Vector1_fc23ff59f73e490ebebed8b6586305d7: 0
    - Vector1_growingplanttrunk: 0
    m_Colors:
    - Color_774cee7764bc4220b5b7973cf478a532: {r: 0.3306515, g: 0.4528302, b: 0.33424497, a: 0}
    - Color_97dfe671380945278fddb42f3f142f65: {r: 0.36078432, g: 0.59607846, b: 0.43820766, a: 0}
  m_BuildTextureStacks: []
