%YAML 1.1
%TAG !u! tag:unity3d.com,2011:
--- !u!1001 &4538371443475047027
PrefabInstance:
  m_ObjectHideFlags: 0
  serializedVersion: 2
  m_Modification:
    m_TransformParent: {fileID: 0}
    m_Modifications:
    - target: {fileID: 440258657907076473, guid: 0d4f93ebcd419664cb601888f196c252, type: 3}
      propertyPath: m_RootOrder
      value: 0
      objectReference: {fileID: 0}
    - target: {fileID: 440258657907076473, guid: 0d4f93ebcd419664cb601888f196c252, type: 3}
      propertyPath: m_LocalPosition.x
      value: 0
      objectReference: {fileID: 0}
    - target: {fileID: 440258657907076473, guid: 0d4f93ebcd419664cb601888f196c252, type: 3}
      propertyPath: m_LocalPosition.y
      value: 0
      objectReference: {fileID: 0}
    - target: {fileID: 440258657907076473, guid: 0d4f93ebcd419664cb601888f196c252, type: 3}
      propertyPath: m_LocalPosition.z
      value: 0
      objectReference: {fileID: 0}
    - target: {fileID: 440258657907076473, guid: 0d4f93ebcd419664cb601888f196c252, type: 3}
      propertyPath: m_LocalRotation.w
      value: 1
      objectReference: {fileID: 0}
    - target: {fileID: 440258657907076473, guid: 0d4f93ebcd419664cb601888f196c252, type: 3}
      propertyPath: m_LocalRotation.x
      value: -0
      objectReference: {fileID: 0}
    - target: {fileID: 440258657907076473, guid: 0d4f93ebcd419664cb601888f196c252, type: 3}
      propertyPath: m_LocalRotation.y
      value: -0
      objectReference: {fileID: 0}
    - target: {fileID: 440258657907076473, guid: 0d4f93ebcd419664cb601888f196c252, type: 3}
      propertyPath: m_LocalRotation.z
      value: -0
      objectReference: {fileID: 0}
    - target: {fileID: 440258657907076473, guid: 0d4f93ebcd419664cb601888f196c252, type: 3}
      propertyPath: m_LocalEulerAnglesHint.x
      value: 0
      objectReference: {fileID: 0}
    - target: {fileID: 440258657907076473, guid: 0d4f93ebcd419664cb601888f196c252, type: 3}
      propertyPath: m_LocalEulerAnglesHint.y
      value: 0
      objectReference: {fileID: 0}
    - target: {fileID: 440258657907076473, guid: 0d4f93ebcd419664cb601888f196c252, type: 3}
      propertyPath: m_LocalEulerAnglesHint.z
      value: 0
      objectReference: {fileID: 0}
    - target: {fileID: 440258657907076474, guid: 0d4f93ebcd419664cb601888f196c252, type: 3}
      propertyPath: m_Name
      value: GlassDoor2
      objectReference: {fileID: 0}
    - target: {fileID: 6572717839409863864, guid: 0d4f93ebcd419664cb601888f196c252, type: 3}
      propertyPath: m_Mesh
      value: 
      objectReference: {fileID: 7851026153593521284, guid: 7d6eaf0624da68e40b5ab95fad492107, type: 3}
    - target: {fileID: 8077805257929117463, guid: 0d4f93ebcd419664cb601888f196c252, type: 3}
      propertyPath: m_Size.x
      value: 8.912209
      objectReference: {fileID: 0}
    - target: {fileID: 8077805257929117463, guid: 0d4f93ebcd419664cb601888f196c252, type: 3}
      propertyPath: m_Size.z
      value: 0.11333823
      objectReference: {fileID: 0}
    - target: {fileID: 8077805257929117463, guid: 0d4f93ebcd419664cb601888f196c252, type: 3}
      propertyPath: m_Center.x
      value: -0.031757355
      objectReference: {fileID: 0}
    m_RemovedComponents: []
  m_SourcePrefab: {fileID: 100100000, guid: 0d4f93ebcd419664cb601888f196c252, type: 3}
