%YAML 1.1
%TAG !u! tag:unity3d.com,2011:
--- !u!21 &2100000
Material:
  serializedVersion: 6
  m_ObjectHideFlags: 0
  m_CorrespondingSourceObject: {fileID: 0}
  m_PrefabInstance: {fileID: 0}
  m_PrefabAsset: {fileID: 0}
  m_Name: MAT_VertexColor
  m_Shader: {fileID: -6465566751694194690, guid: 2c5dc84df52051d4085bdb081812aff3, type: 3}
  m_ShaderKeywords: 
  m_LightmapFlags: 4
  m_EnableInstancingVariants: 0
  m_DoubleSidedGI: 0
  m_CustomRenderQueue: -1
  stringTagMap: {}
  disabledShaderPasses: []
  m_SavedProperties:
    serializedVersion: 3
    m_TexEnvs:
    - unity_Lightmaps:
        m_Texture: {fileID: 0}
        m_Scale: {x: 1, y: 1}
        m_Offset: {x: 0, y: 0}
    - unity_LightmapsInd:
        m_Texture: {fileID: 0}
        m_Scale: {x: 1, y: 1}
        m_Offset: {x: 0, y: 0}
    - unity_ShadowMasks:
        m_Texture: {fileID: 0}
        m_Scale: {x: 1, y: 1}
        m_Offset: {x: 0, y: 0}
    m_Floats:
    - Vector1_20be59ffcf8c4d6593e536242de8c2ec: 0
    - Vector1_4355504f447649f8bfea2975ca19894b: 1.36
    - Vector1_6773fe1a3a6c47beb0d25c4fbe899cae: 1
    - Vector1_AshesFactor: 1
    - Vector1_cdcc3c094eba469e928362c2cffad8ac: 0
    m_Colors: []
  m_BuildTextureStacks: []
