%YAML 1.1
%TAG !u! tag:unity3d.com,2011:
--- !u!1001 &635509279414341987
PrefabInstance:
  m_ObjectHideFlags: 0
  serializedVersion: 2
  m_Modification:
    m_TransformParent: {fileID: 0}
    m_Modifications:
    - target: {fileID: 475843166575392805, guid: fbc376ea14d25a94bb7edbb59065f8a1, type: 3}
      propertyPath: m_IsActive
      value: 0
      objectReference: {fileID: 0}
    - target: {fileID: 1677474168554285109, guid: fbc376ea14d25a94bb7edbb59065f8a1, type: 3}
      propertyPath: m_RootOrder
      value: 0
      objectReference: {fileID: 0}
    - target: {fileID: 1677474168554285109, guid: fbc376ea14d25a94bb7edbb59065f8a1, type: 3}
      propertyPath: m_LocalPosition.x
      value: 0
      objectReference: {fileID: 0}
    - target: {fileID: 1677474168554285109, guid: fbc376ea14d25a94bb7edbb59065f8a1, type: 3}
      propertyPath: m_LocalPosition.y
      value: 0
      objectReference: {fileID: 0}
    - target: {fileID: 1677474168554285109, guid: fbc376ea14d25a94bb7edbb59065f8a1, type: 3}
      propertyPath: m_LocalPosition.z
      value: 0
      objectReference: {fileID: 0}
    - target: {fileID: 1677474168554285109, guid: fbc376ea14d25a94bb7edbb59065f8a1, type: 3}
      propertyPath: m_LocalRotation.w
      value: 1
      objectReference: {fileID: 0}
    - target: {fileID: 1677474168554285109, guid: fbc376ea14d25a94bb7edbb59065f8a1, type: 3}
      propertyPath: m_LocalRotation.x
      value: 0
      objectReference: {fileID: 0}
    - target: {fileID: 1677474168554285109, guid: fbc376ea14d25a94bb7edbb59065f8a1, type: 3}
      propertyPath: m_LocalRotation.y
      value: -0
      objectReference: {fileID: 0}
    - target: {fileID: 1677474168554285109, guid: fbc376ea14d25a94bb7edbb59065f8a1, type: 3}
      propertyPath: m_LocalRotation.z
      value: -0
      objectReference: {fileID: 0}
    - target: {fileID: 1677474168554285109, guid: fbc376ea14d25a94bb7edbb59065f8a1, type: 3}
      propertyPath: m_LocalEulerAnglesHint.x
      value: 0
      objectReference: {fileID: 0}
    - target: {fileID: 1677474168554285109, guid: fbc376ea14d25a94bb7edbb59065f8a1, type: 3}
      propertyPath: m_LocalEulerAnglesHint.y
      value: 0
      objectReference: {fileID: 0}
    - target: {fileID: 1677474168554285109, guid: fbc376ea14d25a94bb7edbb59065f8a1, type: 3}
      propertyPath: m_LocalEulerAnglesHint.z
      value: 0
      objectReference: {fileID: 0}
    - target: {fileID: 2021066692907643535, guid: fbc376ea14d25a94bb7edbb59065f8a1, type: 3}
      propertyPath: m_Name
      value: BridgyFACTORY1
      objectReference: {fileID: 0}
    - target: {fileID: 3271934889691005742, guid: fbc376ea14d25a94bb7edbb59065f8a1, type: 3}
      propertyPath: m_Enabled
      value: 0
      objectReference: {fileID: 0}
    - target: {fileID: 3271934889691005742, guid: fbc376ea14d25a94bb7edbb59065f8a1, type: 3}
      propertyPath: m_Materials.Array.data[0]
      value: 
      objectReference: {fileID: 0}
    - target: {fileID: 3271934889691005742, guid: fbc376ea14d25a94bb7edbb59065f8a1, type: 3}
      propertyPath: m_Materials.Array.data[1]
      value: 
      objectReference: {fileID: 0}
    - target: {fileID: 3271934889691005742, guid: fbc376ea14d25a94bb7edbb59065f8a1, type: 3}
      propertyPath: m_Materials.Array.data[2]
      value: 
      objectReference: {fileID: 0}
    - target: {fileID: 4954732178112990577, guid: fbc376ea14d25a94bb7edbb59065f8a1, type: 3}
      propertyPath: m_Enabled
      value: 0
      objectReference: {fileID: 0}
    - target: {fileID: 4954732178112990577, guid: fbc376ea14d25a94bb7edbb59065f8a1, type: 3}
      propertyPath: m_Materials.Array.data[0]
      value: 
      objectReference: {fileID: 0}
    - target: {fileID: 4954732178112990577, guid: fbc376ea14d25a94bb7edbb59065f8a1, type: 3}
      propertyPath: m_Materials.Array.data[1]
      value: 
      objectReference: {fileID: 0}
    m_RemovedComponents: []
  m_SourcePrefab: {fileID: 100100000, guid: fbc376ea14d25a94bb7edbb59065f8a1, type: 3}
--- !u!4 &2276109521625987414 stripped
Transform:
  m_CorrespondingSourceObject: {fileID: 1677474168554285109, guid: fbc376ea14d25a94bb7edbb59065f8a1, type: 3}
  m_PrefabInstance: {fileID: 635509279414341987}
  m_PrefabAsset: {fileID: 0}
--- !u!1001 &7158193376208436485
PrefabInstance:
  m_ObjectHideFlags: 0
  serializedVersion: 2
  m_Modification:
    m_TransformParent: {fileID: 2276109521625987414}
    m_Modifications:
    - target: {fileID: 1283263625932968711, guid: 637a6c20f7f4d694a88424d7c45266cd, type: 3}
      propertyPath: m_Materials.Array.data[0]
      value: 
      objectReference: {fileID: 0}
    - target: {fileID: 1283263625932968711, guid: 637a6c20f7f4d694a88424d7c45266cd, type: 3}
      propertyPath: m_Materials.Array.data[1]
      value: 
      objectReference: {fileID: 0}
    - target: {fileID: 1518373087363965531, guid: 637a6c20f7f4d694a88424d7c45266cd, type: 3}
      propertyPath: m_Materials.Array.data[0]
      value: 
      objectReference: {fileID: 0}
    - target: {fileID: 1588292475380253373, guid: 637a6c20f7f4d694a88424d7c45266cd, type: 3}
      propertyPath: m_Materials.Array.data[0]
      value: 
      objectReference: {fileID: 0}
    - target: {fileID: 2419531011853276822, guid: 637a6c20f7f4d694a88424d7c45266cd, type: 3}
      propertyPath: m_Materials.Array.data[0]
      value: 
      objectReference: {fileID: 0}
    - target: {fileID: 4083607066944341140, guid: 637a6c20f7f4d694a88424d7c45266cd, type: 3}
      propertyPath: m_Materials.Array.data[0]
      value: 
      objectReference: {fileID: 0}
    - target: {fileID: 4466348591289052572, guid: 637a6c20f7f4d694a88424d7c45266cd, type: 3}
      propertyPath: m_Materials.Array.data[0]
      value: 
      objectReference: {fileID: 0}
    - target: {fileID: 4466348591289052572, guid: 637a6c20f7f4d694a88424d7c45266cd, type: 3}
      propertyPath: m_Materials.Array.data[1]
      value: 
      objectReference: {fileID: 0}
    - target: {fileID: 4703013963313757562, guid: 637a6c20f7f4d694a88424d7c45266cd, type: 3}
      propertyPath: m_Materials.Array.data[0]
      value: 
      objectReference: {fileID: 0}
    - target: {fileID: 4703013963313757562, guid: 637a6c20f7f4d694a88424d7c45266cd, type: 3}
      propertyPath: m_Materials.Array.data[1]
      value: 
      objectReference: {fileID: 0}
    - target: {fileID: 4703013963313757562, guid: 637a6c20f7f4d694a88424d7c45266cd, type: 3}
      propertyPath: m_Materials.Array.data[2]
      value: 
      objectReference: {fileID: 0}
    - target: {fileID: 4719501721384448442, guid: 637a6c20f7f4d694a88424d7c45266cd, type: 3}
      propertyPath: m_RootOrder
      value: 1
      objectReference: {fileID: 0}
    - target: {fileID: 4719501721384448442, guid: 637a6c20f7f4d694a88424d7c45266cd, type: 3}
      propertyPath: m_LocalScale.x
      value: 0.5999008
      objectReference: {fileID: 0}
    - target: {fileID: 4719501721384448442, guid: 637a6c20f7f4d694a88424d7c45266cd, type: 3}
      propertyPath: m_LocalScale.y
      value: 0.5999008
      objectReference: {fileID: 0}
    - target: {fileID: 4719501721384448442, guid: 637a6c20f7f4d694a88424d7c45266cd, type: 3}
      propertyPath: m_LocalScale.z
      value: 0.5999008
      objectReference: {fileID: 0}
    - target: {fileID: 4719501721384448442, guid: 637a6c20f7f4d694a88424d7c45266cd, type: 3}
      propertyPath: m_LocalPosition.x
      value: 0
      objectReference: {fileID: 0}
    - target: {fileID: 4719501721384448442, guid: 637a6c20f7f4d694a88424d7c45266cd, type: 3}
      propertyPath: m_LocalPosition.y
      value: 1.1998014
      objectReference: {fileID: 0}
    - target: {fileID: 4719501721384448442, guid: 637a6c20f7f4d694a88424d7c45266cd, type: 3}
      propertyPath: m_LocalPosition.z
      value: 0
      objectReference: {fileID: 0}
    - target: {fileID: 4719501721384448442, guid: 637a6c20f7f4d694a88424d7c45266cd, type: 3}
      propertyPath: m_LocalRotation.w
      value: 1
      objectReference: {fileID: 0}
    - target: {fileID: 4719501721384448442, guid: 637a6c20f7f4d694a88424d7c45266cd, type: 3}
      propertyPath: m_LocalRotation.x
      value: -0
      objectReference: {fileID: 0}
    - target: {fileID: 4719501721384448442, guid: 637a6c20f7f4d694a88424d7c45266cd, type: 3}
      propertyPath: m_LocalRotation.y
      value: -0
      objectReference: {fileID: 0}
    - target: {fileID: 4719501721384448442, guid: 637a6c20f7f4d694a88424d7c45266cd, type: 3}
      propertyPath: m_LocalRotation.z
      value: -0
      objectReference: {fileID: 0}
    - target: {fileID: 4719501721384448442, guid: 637a6c20f7f4d694a88424d7c45266cd, type: 3}
      propertyPath: m_LocalEulerAnglesHint.x
      value: 0
      objectReference: {fileID: 0}
    - target: {fileID: 4719501721384448442, guid: 637a6c20f7f4d694a88424d7c45266cd, type: 3}
      propertyPath: m_LocalEulerAnglesHint.y
      value: 0
      objectReference: {fileID: 0}
    - target: {fileID: 4719501721384448442, guid: 637a6c20f7f4d694a88424d7c45266cd, type: 3}
      propertyPath: m_LocalEulerAnglesHint.z
      value: 0
      objectReference: {fileID: 0}
    - target: {fileID: 5012748164385436418, guid: 637a6c20f7f4d694a88424d7c45266cd, type: 3}
      propertyPath: m_Materials.Array.data[0]
      value: 
      objectReference: {fileID: 0}
    - target: {fileID: 5347137677244672768, guid: 637a6c20f7f4d694a88424d7c45266cd, type: 3}
      propertyPath: m_Name
      value: Tree_Enclosure_Down_Fruit_2
      objectReference: {fileID: 0}
    - target: {fileID: 5347137677244672768, guid: 637a6c20f7f4d694a88424d7c45266cd, type: 3}
      propertyPath: m_StaticEditorFlags
      value: 0
      objectReference: {fileID: 0}
    - target: {fileID: 5792857279707493065, guid: 637a6c20f7f4d694a88424d7c45266cd, type: 3}
      propertyPath: m_Materials.Array.data[0]
      value: 
      objectReference: {fileID: 0}
    - target: {fileID: 5792857279707493065, guid: 637a6c20f7f4d694a88424d7c45266cd, type: 3}
      propertyPath: m_Materials.Array.data[1]
      value: 
      objectReference: {fileID: 0}
    - target: {fileID: 5792857279707493065, guid: 637a6c20f7f4d694a88424d7c45266cd, type: 3}
      propertyPath: m_Materials.Array.data[2]
      value: 
      objectReference: {fileID: 0}
    - target: {fileID: 8067846475366540396, guid: 637a6c20f7f4d694a88424d7c45266cd, type: 3}
      propertyPath: m_Materials.Array.data[0]
      value: 
      objectReference: {fileID: 0}
    - target: {fileID: 8541456682965636126, guid: 637a6c20f7f4d694a88424d7c45266cd, type: 3}
      propertyPath: m_Materials.Array.data[0]
      value: 
      objectReference: {fileID: 0}
    m_RemovedComponents: []
  m_SourcePrefab: {fileID: 100100000, guid: 637a6c20f7f4d694a88424d7c45266cd, type: 3}
