%YAML 1.1
%TAG !u! tag:unity3d.com,2011:
--- !u!114 &11400000
MonoBehaviour:
  m_ObjectHideFlags: 0
  m_CorrespondingSourceObject: {fileID: 0}
  m_PrefabInstance: {fileID: 0}
  m_PrefabAsset: {fileID: 0}
  m_GameObject: {fileID: 0}
  m_Enabled: 1
  m_EditorHideFlags: 0
  m_Script: {fileID: 11500000, guid: 978f6d6463c60a140a13a0d603ac75d6, type: 3}
  m_Name: 54BAA3E5-8F17-4662-9043-902CAD2A6892
  m_EditorClassIdentifier: 
  objectName: SW_Chara_Foosteps_Materiels
  id: 708098268
  guid: 54BAA3E5-8F17-4662-9043-902CAD2A6892
