%YAML 1.1
%TAG !u! tag:unity3d.com,2011:
--- !u!114 &11400000
MonoBehaviour:
  m_ObjectHideFlags: 0
  m_CorrespondingSourceObject: {fileID: 0}
  m_PrefabInstance: {fileID: 0}
  m_PrefabAsset: {fileID: 0}
  m_GameObject: {fileID: 0}
  m_Enabled: 1
  m_EditorHideFlags: 0
  m_Script: {fileID: 11500000, guid: ff2e821378d456d4dbda1751beaa2f09, type: 3}
  m_Name: 0613F2E7-F9A2-44A5-AB65-441461ECB90C
  m_EditorClassIdentifier: 
  objectName: EV_Play_Props_Laser_Melt__Collision
  id: 513175003
  guid: 0613F2E7-F9A2-44A5-AB65-441461ECB90C
