%YAML 1.1
%TAG !u! tag:unity3d.com,2011:
--- !u!114 &11400000
MonoBehaviour:
  m_ObjectHideFlags: 0
  m_CorrespondingSourceObject: {fileID: 0}
  m_PrefabInstance: {fileID: 0}
  m_PrefabAsset: {fileID: 0}
  m_GameObject: {fileID: 0}
  m_Enabled: 1
  m_EditorHideFlags: 0
  m_Script: {fileID: 11500000, guid: ff2e821378d456d4dbda1751beaa2f09, type: 3}
  m_Name: 07086D9E-8437-4F71-8764-7939974C7C86
  m_EditorClassIdentifier: 
  objectName: EV_Play_Music_Tuto_MONO
  id: 753014420
  guid: 07086D9E-8437-4F71-8764-7939974C7C86
