%YAML 1.1
%TAG !u! tag:unity3d.com,2011:
--- !u!114 &11400000
MonoBehaviour:
  m_ObjectHideFlags: 0
  m_CorrespondingSourceObject: {fileID: 0}
  m_PrefabInstance: {fileID: 0}
  m_PrefabAsset: {fileID: 0}
  m_GameObject: {fileID: 0}
  m_Enabled: 1
  m_EditorHideFlags: 0
  m_Script: {fileID: 11500000, guid: ff2e821378d456d4dbda1751beaa2f09, type: 3}
  m_Name: 19FDC575-02D6-429D-A4FE-55CB5292B10E
  m_EditorClassIdentifier: 
  objectName: EV_Stop_Robot_PNJ_Fly
  id: 2196506129
  guid: 19FDC575-02D6-429D-A4FE-55CB5292B10E
