%YAML 1.1
%TAG !u! tag:unity3d.com,2011:
--- !u!114 &11400000
MonoBehaviour:
  m_ObjectHideFlags: 0
  m_CorrespondingSourceObject: {fileID: 0}
  m_PrefabInstance: {fileID: 0}
  m_PrefabAsset: {fileID: 0}
  m_GameObject: {fileID: 0}
  m_Enabled: 1
  m_EditorHideFlags: 0
  m_Script: {fileID: 11500000, guid: ff2e821378d456d4dbda1751beaa2f09, type: 3}
  m_Name: 44C1EC1D-BB17-44FD-9709-7B52AD5E27D4
  m_EditorClassIdentifier: 
  objectName: EV_Play_SFX_Ventillation2
  id: 1877916701
  guid: 44C1EC1D-BB17-44FD-9709-7B52AD5E27D4
