%YAML 1.1
%TAG !u! tag:unity3d.com,2011:
--- !u!114 &11400000
MonoBehaviour:
  m_ObjectHideFlags: 0
  m_CorrespondingSourceObject: {fileID: 0}
  m_PrefabInstance: {fileID: 0}
  m_PrefabAsset: {fileID: 0}
  m_GameObject: {fileID: 0}
  m_Enabled: 1
  m_EditorHideFlags: 0
  m_Script: {fileID: 11500000, guid: ff2e821378d456d4dbda1751beaa2f09, type: 3}
  m_Name: 5EC744F9-7F9B-4AA0-B5F3-184045A2B62F
  m_EditorClassIdentifier: 
  objectName: EV_Play_Chara_UV_Light_Robot
  id: 621133417
  guid: 5EC744F9-7F9B-4AA0-B5F3-184045A2B62F
