%YAML 1.1
%TAG !u! tag:unity3d.com,2011:
--- !u!114 &11400000
MonoBehaviour:
  m_ObjectHideFlags: 0
  m_CorrespondingSourceObject: {fileID: 0}
  m_PrefabInstance: {fileID: 0}
  m_PrefabAsset: {fileID: 0}
  m_GameObject: {fileID: 0}
  m_Enabled: 1
  m_EditorHideFlags: 0
  m_Script: {fileID: 11500000, guid: ff2e821378d456d4dbda1751beaa2f09, type: 3}
  m_Name: 75D34063-FE08-477D-8BFB-EB2C44E3E898
  m_EditorClassIdentifier: 
  objectName: EV_Play_Hand1
  id: 1940473172
  guid: 75D34063-FE08-477D-8BFB-EB2C44E3E898
