%YAML 1.1
%TAG !u! tag:unity3d.com,2011:
--- !u!114 &11400000
MonoBehaviour:
  m_ObjectHideFlags: 0
  m_CorrespondingSourceObject: {fileID: 0}
  m_PrefabInstance: {fileID: 0}
  m_PrefabAsset: {fileID: 0}
  m_GameObject: {fileID: 0}
  m_Enabled: 1
  m_EditorHideFlags: 0
  m_Script: {fileID: 11500000, guid: ff2e821378d456d4dbda1751beaa2f09, type: 3}
  m_Name: 9AE73C74-B8BC-4779-BFEE-D960AB3691D1
  m_EditorClassIdentifier: 
  objectName: EV_Play_Amb_Water_Turbine
  id: 537571768
  guid: 9AE73C74-B8BC-4779-BFEE-D960AB3691D1
