%YAML 1.1
%TAG !u! tag:unity3d.com,2011:
--- !u!114 &11400000
MonoBehaviour:
  m_ObjectHideFlags: 0
  m_CorrespondingSourceObject: {fileID: 0}
  m_PrefabInstance: {fileID: 0}
  m_PrefabAsset: {fileID: 0}
  m_GameObject: {fileID: 0}
  m_Enabled: 1
  m_EditorHideFlags: 0
  m_Script: {fileID: 11500000, guid: ff2e821378d456d4dbda1751beaa2f09, type: 3}
  m_Name: EE394CAA-1676-4A9C-98BB-2916C99F4D8C
  m_EditorClassIdentifier: 
  objectName: EV_Play_Amb_Factory_Room1_Tuto
  id: 3180902349
  guid: EE394CAA-1676-4A9C-98BB-2916C99F4D8C
