{
 "PluginInfo": {
  "Project": "Overheat_Wwise",
  "Platform": "Mac",
  "BasePlatform": "Mac",
  "Plugins": [
   {
    "Name": "Wwise Delay",
    "ID": "6946819",
    "DLL": "AkDelay",
    "StaticLib": "AkDelayFX"
   },
   {
    "Name": "Wwise RoomVerb",
    "ID": "7733251",
    "DLL": "AkRoomVerb",
    "StaticLib": "AkRoomVerbFX"
   },
   {
    "Name": "Wwise Flanger",
    "ID": "8192003",
    "DLL": "AkFlanger",
    "StaticLib": "AkFlangerFX"
   },
   {
    "Name": "Wwise Recorder",
    "ID": "8650755",
    "DLL": "AkRecorder",
    "StaticLib": "AkRecorderFX"
   },
   {
    "Name": "Wwise Harmonizer",
    "ID": "9043971",
    "DLL": "AkHarmonizer",
    "StaticLib": "AkHarmonizerFX"
   },
   {
    "Name": "System",
    "ID": "11403271"
   },
   {
    "Name": "No Output",
    "ID": "11862023"
   }
  ]
 }
}