{
 "SoundBanksInfo": {
  "Platform": "Windows",
  "BasePlatform": "Windows",
  "SchemaVersion": "12",
  "SoundbankVersion": "140",
  "RootPaths": {
   "ProjectRoot": "C:\\Users\\ELE5f5a314657752\\ProjetM1_Overheat\\Repo_Wwise\\Overheat_Wwise\\",
   "SourceFilesRoot": "C:\\Users\\ELE5f5a314657752\\ProjetM1_Overheat\\Repo_Wwise\\Overheat_Wwise\\.cache\\Windows\\",
   "SoundBanksRoot": "C:\\Users\\ELE5f5a314657752\\ProjetM1_Overheat\\Repo_Unity\\Assets\\StreamingAssets\\Audio\\GeneratedSoundBanks\\Windows\\",
   "ExternalSourcesInputFile": "",
   "ExternalSourcesOutputRoot": "C:\\Users\\ELE5f5a314657752\\ProjetM1_Overheat\\Repo_Wwise\\Overheat_Wwise\\GeneratedSoundBanks\\Windows"
  },
  "SoundBanks": [
   {
    "Id": "1355168291",
    "GUID": "{701ECBBD-9C7B-4030-8CDB-749EE5D1C7B9}",
    "Language": "SFX",
    "Hash": "4135428068",
    "ObjectPath": "Init",
    "ShortName": "Init",
    "Path": "Init.bnk",
    "IncludedAuxBusses": [
     {
      "Id": "282149398",
      "Name": "Delay_Room2",
      "ObjectPath": "\\Master-Mixer Hierarchy\\Default Work Unit\\Master Audio Bus\\Delay_Room2",
      "GUID": "{CDAEA5E1-50CA-4DFB-B38D-5C032FD68520}"
     },
     {
      "Id": "508475202",
      "Name": "Reverb_Props",
      "ObjectPath": "\\Master-Mixer Hierarchy\\Default Work Unit\\Master Audio Bus\\Reverb_Props",
      "GUID": "{0B1E69C6-308F-490F-92B6-6C79B96C5A78}"
     },
     {
      "Id": "1076479569",
      "Name": "Reverb_Laser",
      "ObjectPath": "\\Master-Mixer Hierarchy\\Default Work Unit\\Master Audio Bus\\Reverb_Laser",
      "GUID": "{09F3048C-6274-4ED2-9647-0CDF5C92F5F2}"
     },
     {
      "Id": "2729821376",
      "Name": "Reverb_PNJ",
      "ObjectPath": "\\Master-Mixer Hierarchy\\Default Work Unit\\Master Audio Bus\\Reverb_PNJ",
      "GUID": "{AA43BC5E-740E-4541-B1EE-5058D0D0EF9B}"
     },
     {
      "Id": "3676793708",
      "Name": "Reverb_HP_Music",
      "ObjectPath": "\\Master-Mixer Hierarchy\\Default Work Unit\\Master Audio Bus\\Reverb_HP_Music",
      "GUID": "{E9F8D0D0-84AF-447B-AF48-C25485D52A1F}"
     }
    ],
    "GameParameters": [
     {
      "Id": "13924921",
      "Name": "GP_Volume_Master_Sliders",
      "ObjectPath": "\\Game Parameters\\Default Work Unit\\GP_Volume_Master_Sliders",
      "GUID": "{B4F543B8-AD59-4C78-A18E-09E80C65D6CF}"
     }
    ]
   }
  ]
 }
}