%YAML 1.1
%TAG !u! tag:unity3d.com,2011:
--- !u!114 &11400000
MonoBehaviour:
  m_ObjectHideFlags: 0
  m_CorrespondingSourceObject: {fileID: 0}
  m_PrefabInstance: {fileID: 0}
  m_PrefabAsset: {fileID: 0}
  m_GameObject: {fileID: 0}
  m_Enabled: 1
  m_EditorHideFlags: 0
  m_Script: {fileID: 11500000, guid: f6dc3eb118a4ae84b88fd1a34d06147b, type: 3}
  m_Name: 357E21DD-9204-4EED-9E75-BC2DEA20D190
  m_EditorClassIdentifier: 
  objectName: NoDamage
  id: 1078141303
  guid: 357E21DD-9204-4EED-9E75-BC2DEA20D190
  WwiseSwitchGroupReference: {fileID: 11400000, guid: e45cad47845cae04e8d856d98c373be6, type: 2}
