%YAML 1.1
%TAG !u! tag:unity3d.com,2011:
--- !u!1001 &2919007388230152939
PrefabInstance:
  m_ObjectHideFlags: 0
  serializedVersion: 2
  m_Modification:
    m_TransformParent: {fileID: 0}
    m_Modifications:
    - target: {fileID: 339318202610231565, guid: bf215d420f12a6e4aa39d98d73c11211, type: 3}
      propertyPath: m_RootOrder
      value: 0
      objectReference: {fileID: 0}
    - target: {fileID: 339318202610231565, guid: bf215d420f12a6e4aa39d98d73c11211, type: 3}
      propertyPath: m_LocalPosition.x
      value: 0
      objectReference: {fileID: 0}
    - target: {fileID: 339318202610231565, guid: bf215d420f12a6e4aa39d98d73c11211, type: 3}
      propertyPath: m_LocalPosition.y
      value: 0
      objectReference: {fileID: 0}
    - target: {fileID: 339318202610231565, guid: bf215d420f12a6e4aa39d98d73c11211, type: 3}
      propertyPath: m_LocalPosition.z
      value: 0
      objectReference: {fileID: 0}
    - target: {fileID: 339318202610231565, guid: bf215d420f12a6e4aa39d98d73c11211, type: 3}
      propertyPath: m_LocalRotation.w
      value: 1
      objectReference: {fileID: 0}
    - target: {fileID: 339318202610231565, guid: bf215d420f12a6e4aa39d98d73c11211, type: 3}
      propertyPath: m_LocalRotation.x
      value: 0
      objectReference: {fileID: 0}
    - target: {fileID: 339318202610231565, guid: bf215d420f12a6e4aa39d98d73c11211, type: 3}
      propertyPath: m_LocalRotation.y
      value: 0
      objectReference: {fileID: 0}
    - target: {fileID: 339318202610231565, guid: bf215d420f12a6e4aa39d98d73c11211, type: 3}
      propertyPath: m_LocalRotation.z
      value: 0
      objectReference: {fileID: 0}
    - target: {fileID: 339318202610231565, guid: bf215d420f12a6e4aa39d98d73c11211, type: 3}
      propertyPath: m_LocalEulerAnglesHint.x
      value: 0
      objectReference: {fileID: 0}
    - target: {fileID: 339318202610231565, guid: bf215d420f12a6e4aa39d98d73c11211, type: 3}
      propertyPath: m_LocalEulerAnglesHint.y
      value: 0
      objectReference: {fileID: 0}
    - target: {fileID: 339318202610231565, guid: bf215d420f12a6e4aa39d98d73c11211, type: 3}
      propertyPath: m_LocalEulerAnglesHint.z
      value: 0
      objectReference: {fileID: 0}
    - target: {fileID: 1152447302080164791, guid: bf215d420f12a6e4aa39d98d73c11211, type: 3}
      propertyPath: m_Name
      value: Burnable_Box_1x1_FACTORY
      objectReference: {fileID: 0}
    - target: {fileID: 5211349025865944501, guid: bf215d420f12a6e4aa39d98d73c11211, type: 3}
      propertyPath: MaxDurability
      value: 0.5
      objectReference: {fileID: 0}
    m_RemovedComponents: []
  m_SourcePrefab: {fileID: 100100000, guid: bf215d420f12a6e4aa39d98d73c11211, type: 3}
