%YAML 1.1
%TAG !u! tag:unity3d.com,2011:
--- !u!1001 &3989565878115589634
PrefabInstance:
  m_ObjectHideFlags: 0
  serializedVersion: 2
  m_Modification:
    m_TransformParent: {fileID: 0}
    m_Modifications:
    - target: {fileID: 723934348100457026, guid: b3f746521cc554c4b90c5950bffe78bb, type: 3}
      propertyPath: m_Materials.Array.data[0]
      value: 
      objectReference: {fileID: 0}
    - target: {fileID: 723934348100457026, guid: b3f746521cc554c4b90c5950bffe78bb, type: 3}
      propertyPath: m_Materials.Array.data[1]
      value: 
      objectReference: {fileID: 0}
    - target: {fileID: 723934348100457026, guid: b3f746521cc554c4b90c5950bffe78bb, type: 3}
      propertyPath: m_Materials.Array.data[2]
      value: 
      objectReference: {fileID: 0}
    - target: {fileID: 2262549839956702877, guid: b3f746521cc554c4b90c5950bffe78bb, type: 3}
      propertyPath: m_IsActive
      value: 0
      objectReference: {fileID: 0}
    - target: {fileID: 2383565622466836257, guid: b3f746521cc554c4b90c5950bffe78bb, type: 3}
      propertyPath: m_Materials.Array.data[0]
      value: 
      objectReference: {fileID: 2100000, guid: a3e3edda7c521424a83fbfbbcc0d99c6, type: 2}
    - target: {fileID: 2716684471555957382, guid: b3f746521cc554c4b90c5950bffe78bb, type: 3}
      propertyPath: m_IsActive
      value: 0
      objectReference: {fileID: 0}
    - target: {fileID: 3074751690840288683, guid: b3f746521cc554c4b90c5950bffe78bb, type: 3}
      propertyPath: m_IsActive
      value: 0
      objectReference: {fileID: 0}
    - target: {fileID: 3345427025175182233, guid: b3f746521cc554c4b90c5950bffe78bb, type: 3}
      propertyPath: m_IsActive
      value: 0
      objectReference: {fileID: 0}
    - target: {fileID: 3557576055036841038, guid: b3f746521cc554c4b90c5950bffe78bb, type: 3}
      propertyPath: m_RootOrder
      value: 0
      objectReference: {fileID: 0}
    - target: {fileID: 3557576055036841038, guid: b3f746521cc554c4b90c5950bffe78bb, type: 3}
      propertyPath: m_LocalPosition.x
      value: 0
      objectReference: {fileID: 0}
    - target: {fileID: 3557576055036841038, guid: b3f746521cc554c4b90c5950bffe78bb, type: 3}
      propertyPath: m_LocalPosition.y
      value: 0
      objectReference: {fileID: 0}
    - target: {fileID: 3557576055036841038, guid: b3f746521cc554c4b90c5950bffe78bb, type: 3}
      propertyPath: m_LocalPosition.z
      value: 0
      objectReference: {fileID: 0}
    - target: {fileID: 3557576055036841038, guid: b3f746521cc554c4b90c5950bffe78bb, type: 3}
      propertyPath: m_LocalRotation.w
      value: 1
      objectReference: {fileID: 0}
    - target: {fileID: 3557576055036841038, guid: b3f746521cc554c4b90c5950bffe78bb, type: 3}
      propertyPath: m_LocalRotation.x
      value: 0
      objectReference: {fileID: 0}
    - target: {fileID: 3557576055036841038, guid: b3f746521cc554c4b90c5950bffe78bb, type: 3}
      propertyPath: m_LocalRotation.y
      value: -0
      objectReference: {fileID: 0}
    - target: {fileID: 3557576055036841038, guid: b3f746521cc554c4b90c5950bffe78bb, type: 3}
      propertyPath: m_LocalRotation.z
      value: -0
      objectReference: {fileID: 0}
    - target: {fileID: 3557576055036841038, guid: b3f746521cc554c4b90c5950bffe78bb, type: 3}
      propertyPath: m_LocalEulerAnglesHint.x
      value: 0
      objectReference: {fileID: 0}
    - target: {fileID: 3557576055036841038, guid: b3f746521cc554c4b90c5950bffe78bb, type: 3}
      propertyPath: m_LocalEulerAnglesHint.y
      value: 0
      objectReference: {fileID: 0}
    - target: {fileID: 3557576055036841038, guid: b3f746521cc554c4b90c5950bffe78bb, type: 3}
      propertyPath: m_LocalEulerAnglesHint.z
      value: 0
      objectReference: {fileID: 0}
    - target: {fileID: 3560566871615701832, guid: b3f746521cc554c4b90c5950bffe78bb, type: 3}
      propertyPath: m_IsActive
      value: 0
      objectReference: {fileID: 0}
    - target: {fileID: 4185212113240217332, guid: b3f746521cc554c4b90c5950bffe78bb, type: 3}
      propertyPath: m_Name
      value: Small_Shelf_BigMushroom_Variant
      objectReference: {fileID: 0}
    - target: {fileID: 4755467712522457687, guid: b3f746521cc554c4b90c5950bffe78bb, type: 3}
      propertyPath: m_IsActive
      value: 0
      objectReference: {fileID: 0}
    - target: {fileID: 5447987208266389820, guid: b3f746521cc554c4b90c5950bffe78bb, type: 3}
      propertyPath: m_IsActive
      value: 0
      objectReference: {fileID: 0}
    - target: {fileID: 5817708084948738414, guid: b3f746521cc554c4b90c5950bffe78bb, type: 3}
      propertyPath: m_IsActive
      value: 0
      objectReference: {fileID: 0}
    - target: {fileID: 5917802480572449627, guid: b3f746521cc554c4b90c5950bffe78bb, type: 3}
      propertyPath: m_Materials.Array.data[0]
      value: 
      objectReference: {fileID: 0}
    - target: {fileID: 5917802480572449627, guid: b3f746521cc554c4b90c5950bffe78bb, type: 3}
      propertyPath: m_Materials.Array.data[1]
      value: 
      objectReference: {fileID: 0}
    - target: {fileID: 6678375866812231763, guid: b3f746521cc554c4b90c5950bffe78bb, type: 3}
      propertyPath: m_IsActive
      value: 0
      objectReference: {fileID: 0}
    - target: {fileID: 6740595690045955799, guid: b3f746521cc554c4b90c5950bffe78bb, type: 3}
      propertyPath: m_IsActive
      value: 0
      objectReference: {fileID: 0}
    - target: {fileID: 7342829284748510209, guid: b3f746521cc554c4b90c5950bffe78bb, type: 3}
      propertyPath: m_IsActive
      value: 0
      objectReference: {fileID: 0}
    - target: {fileID: 7439735553930392614, guid: b3f746521cc554c4b90c5950bffe78bb, type: 3}
      propertyPath: m_IsActive
      value: 0
      objectReference: {fileID: 0}
    - target: {fileID: 7605384303663464714, guid: b3f746521cc554c4b90c5950bffe78bb, type: 3}
      propertyPath: m_IsActive
      value: 0
      objectReference: {fileID: 0}
    m_RemovedComponents: []
  m_SourcePrefab: {fileID: 100100000, guid: b3f746521cc554c4b90c5950bffe78bb, type: 3}
--- !u!4 &433125761964134988 stripped
Transform:
  m_CorrespondingSourceObject: {fileID: 3557576055036841038, guid: b3f746521cc554c4b90c5950bffe78bb, type: 3}
  m_PrefabInstance: {fileID: 3989565878115589634}
  m_PrefabAsset: {fileID: 0}
--- !u!1001 &8355814436944348119
PrefabInstance:
  m_ObjectHideFlags: 0
  serializedVersion: 2
  m_Modification:
    m_TransformParent: {fileID: 433125761964134988}
    m_Modifications:
    - target: {fileID: -8679921383154817045, guid: 80bd5bf0b70f39f49886c067c10b753b, type: 3}
      propertyPath: m_RootOrder
      value: 17
      objectReference: {fileID: 0}
    - target: {fileID: -8679921383154817045, guid: 80bd5bf0b70f39f49886c067c10b753b, type: 3}
      propertyPath: m_LocalScale.x
      value: 0.5
      objectReference: {fileID: 0}
    - target: {fileID: -8679921383154817045, guid: 80bd5bf0b70f39f49886c067c10b753b, type: 3}
      propertyPath: m_LocalScale.y
      value: 0.5
      objectReference: {fileID: 0}
    - target: {fileID: -8679921383154817045, guid: 80bd5bf0b70f39f49886c067c10b753b, type: 3}
      propertyPath: m_LocalScale.z
      value: 0.5
      objectReference: {fileID: 0}
    - target: {fileID: -8679921383154817045, guid: 80bd5bf0b70f39f49886c067c10b753b, type: 3}
      propertyPath: m_LocalPosition.x
      value: 0.296
      objectReference: {fileID: 0}
    - target: {fileID: -8679921383154817045, guid: 80bd5bf0b70f39f49886c067c10b753b, type: 3}
      propertyPath: m_LocalPosition.y
      value: 0.594
      objectReference: {fileID: 0}
    - target: {fileID: -8679921383154817045, guid: 80bd5bf0b70f39f49886c067c10b753b, type: 3}
      propertyPath: m_LocalPosition.z
      value: -0.293
      objectReference: {fileID: 0}
    - target: {fileID: -8679921383154817045, guid: 80bd5bf0b70f39f49886c067c10b753b, type: 3}
      propertyPath: m_LocalRotation.w
      value: -0.5896443
      objectReference: {fileID: 0}
    - target: {fileID: -8679921383154817045, guid: 80bd5bf0b70f39f49886c067c10b753b, type: 3}
      propertyPath: m_LocalRotation.x
      value: 0.23831856
      objectReference: {fileID: 0}
    - target: {fileID: -8679921383154817045, guid: 80bd5bf0b70f39f49886c067c10b753b, type: 3}
      propertyPath: m_LocalRotation.y
      value: 0.7716062
      objectReference: {fileID: 0}
    - target: {fileID: -8679921383154817045, guid: 80bd5bf0b70f39f49886c067c10b753b, type: 3}
      propertyPath: m_LocalRotation.z
      value: -0.012155583
      objectReference: {fileID: 0}
    - target: {fileID: -8679921383154817045, guid: 80bd5bf0b70f39f49886c067c10b753b, type: 3}
      propertyPath: m_LocalEulerAnglesHint.x
      value: -15.206
      objectReference: {fileID: 0}
    - target: {fileID: -8679921383154817045, guid: 80bd5bf0b70f39f49886c067c10b753b, type: 3}
      propertyPath: m_LocalEulerAnglesHint.y
      value: 251.616
      objectReference: {fileID: 0}
    - target: {fileID: -8679921383154817045, guid: 80bd5bf0b70f39f49886c067c10b753b, type: 3}
      propertyPath: m_LocalEulerAnglesHint.z
      value: 23.327
      objectReference: {fileID: 0}
    - target: {fileID: -7511558181221131132, guid: 80bd5bf0b70f39f49886c067c10b753b, type: 3}
      propertyPath: m_Materials.Array.data[0]
      value: 
      objectReference: {fileID: 2100000, guid: b1e569099d10fab428c186bd1ff5b684, type: 2}
    - target: {fileID: 919132149155446097, guid: 80bd5bf0b70f39f49886c067c10b753b, type: 3}
      propertyPath: m_Name
      value: M_DM_All_Explosiv_ChampiExplo (2)
      objectReference: {fileID: 0}
    m_RemovedComponents: []
  m_SourcePrefab: {fileID: 100100000, guid: 80bd5bf0b70f39f49886c067c10b753b, type: 3}
