%YAML 1.1
%TAG !u! tag:unity3d.com,2011:
--- !u!21 &2100000
Material:
  serializedVersion: 6
  m_ObjectHideFlags: 0
  m_CorrespondingSourceObject: {fileID: 0}
  m_PrefabInstance: {fileID: 0}
  m_PrefabAsset: {fileID: 0}
  m_Name: MAT_Grass&Leafs
  m_Shader: {fileID: -6465566751694194690, guid: 94d8b9eb550e952458c55d193d175395, type: 3}
  m_ShaderKeywords: 
  m_LightmapFlags: 4
  m_EnableInstancingVariants: 0
  m_DoubleSidedGI: 0
  m_CustomRenderQueue: -1
  stringTagMap: {}
  disabledShaderPasses: []
  m_SavedProperties:
    serializedVersion: 3
    m_TexEnvs:
    - _SampleTexture2D_0fdb9daba2414e2ab34f1ddbd5cdb030_Texture_1:
        m_Texture: {fileID: 2800000, guid: 61dfeded2290b714fa30b3df108e7609, type: 3}
        m_Scale: {x: 1, y: 1}
        m_Offset: {x: 0, y: 0}
    - _SampleTexture2D_42e896166748b48bbf0a0cbed89355e3_Texture_1:
        m_Texture: {fileID: 2800000, guid: 944670f4beaff9445aebd8a92c4d3a84, type: 3}
        m_Scale: {x: 1, y: 1}
        m_Offset: {x: 0, y: 0}
    - unity_Lightmaps:
        m_Texture: {fileID: 0}
        m_Scale: {x: 1, y: 1}
        m_Offset: {x: 0, y: 0}
    - unity_LightmapsInd:
        m_Texture: {fileID: 0}
        m_Scale: {x: 1, y: 1}
        m_Offset: {x: 0, y: 0}
    - unity_ShadowMasks:
        m_Texture: {fileID: 0}
        m_Scale: {x: 1, y: 1}
        m_Offset: {x: 0, y: 0}
    m_Floats:
    - Tree_Leaf_Dry: 0
    - Vector1_0eea3919d0364f86a505af964fb1ee4f: 0
    - Vector1_163d13935a3f4c8493e5737721806196: 5.6
    - Vector1_2b2d9b46fae1468383da88c619ce6708: 1
    - Vector1_3471bb37fabb47e4b55ff785253a1425: 0
    - Vector1_5f67dffeee044323a71530b229b4deeb: 0.024
    - Vector1_634393ac183c45228648ce08091b3783: 0
    - Vector1_81b5268127d447bdaba95b0ccef0148f: 1.37
    - Vector1_GrowingFactor: 1
    - Vector1_bb5d364a97b34740a072aa43222f2bd0: 0.119
    - Vector1_dff385726580434ea67e7bd97985ca94: 1.28
    - Vector1_e20f0d745b9647b29f3292c0436122d8: 0.046
    - Vector1_f52077cb020b4b49b19d78014f6f9b27: 0.0349
    m_Colors:
    - Color_5bdd785b1ed34136bf5822b3cbf9cce7: {r: 0.3679245, g: 0.3679245, b: 0.3679245, a: 0}
    - Color_a827b3b3b4254d5e83a0c6e9e82f6b85: {r: 1, g: 1, b: 1, a: 0}
  m_BuildTextureStacks: []
