%YAML 1.1
%TAG !u! tag:unity3d.com,2011:
--- !u!21 &2100000
Material:
  serializedVersion: 6
  m_ObjectHideFlags: 0
  m_CorrespondingSourceObject: {fileID: 0}
  m_PrefabInstance: {fileID: 0}
  m_PrefabAsset: {fileID: 0}
  m_Name: MAT_DeadLeafs
  m_Shader: {fileID: -6465566751694194690, guid: a6f06a699980a3141993c36294969217, type: 3}
  m_ShaderKeywords: 
  m_LightmapFlags: 4
  m_EnableInstancingVariants: 0
  m_DoubleSidedGI: 0
  m_CustomRenderQueue: 2999
  stringTagMap: {}
  disabledShaderPasses: []
  m_SavedProperties:
    serializedVersion: 3
    m_TexEnvs:
    - _SampleTexture2D_42e896166748b48bbf0a0cbed89355e3_Texture_1:
        m_Texture: {fileID: 2800000, guid: a23947510bd37394297341e72503778b, type: 3}
        m_Scale: {x: 1, y: 1}
        m_Offset: {x: 0, y: 0}
    - unity_Lightmaps:
        m_Texture: {fileID: 0}
        m_Scale: {x: 1, y: 1}
        m_Offset: {x: 0, y: 0}
    - unity_LightmapsInd:
        m_Texture: {fileID: 0}
        m_Scale: {x: 1, y: 1}
        m_Offset: {x: 0, y: 0}
    - unity_ShadowMasks:
        m_Texture: {fileID: 0}
        m_Scale: {x: 1, y: 1}
        m_Offset: {x: 0, y: 0}
    m_Floats:
    - Tree_Leaf_Dry: 0
    - Vector1_0eea3919d0364f86a505af964fb1ee4f: 0
    - Vector1_2b2d9b46fae1468383da88c619ce6708: 17.9
    - Vector1_2d4aa2e02109461b9e57e64b695fc985: 1.31
    - Vector1_3471bb37fabb47e4b55ff785253a1425: 1.4
    - Vector1_3d75aad62bc7452f9c8d1712462078ae: 0
    - Vector1_5f67dffeee044323a71530b229b4deeb: 0.022
    - Vector1_634393ac183c45228648ce08091b3783: 3.94
    - Vector1_808222cf483146808dc70fcff77ebd3b: 0
    - Vector1_81b5268127d447bdaba95b0ccef0148f: 1.4
    - Vector1_9a605ef8b692408f96e172d429ab08a2: 12.4
    - Vector1_GrowingFactor: 0
    - Vector1_a14b09b816b94c00bf56ea1fb260794f: 0
    - Vector1_ac242591e2a241f5a43173e093c1d4ff: 1
    - Vector1_bf7bb11430f042dc9ea749b161386455: 0.0496
    - Vector1_fc6f71a0433b440c9223d84e85598327: 0.218
    m_Colors:
    - Color_5bdd785b1ed34136bf5822b3cbf9cce7: {r: 0.3584906, g: 0.3584906, b: 0.3584906, a: 0}
    - Color_a827b3b3b4254d5e83a0c6e9e82f6b85: {r: 1, g: 1, b: 1, a: 0}
  m_BuildTextureStacks: []
