%YAML 1.1
%TAG !u! tag:unity3d.com,2011:
--- !u!21 &2100000
Material:
  serializedVersion: 6
  m_ObjectHideFlags: 0
  m_CorrespondingSourceObject: {fileID: 0}
  m_PrefabInstance: {fileID: 0}
  m_PrefabAsset: {fileID: 0}
  m_Name: MAT_EcoFuel
  m_Shader: {fileID: -6465566751694194690, guid: 1fba2020d8467f64c934e68dd7554eef, type: 3}
  m_ShaderKeywords: 
  m_LightmapFlags: 4
  m_EnableInstancingVariants: 0
  m_DoubleSidedGI: 0
  m_CustomRenderQueue: -1
  stringTagMap: {}
  disabledShaderPasses: []
  m_SavedProperties:
    serializedVersion: 3
    m_TexEnvs:
    - unity_Lightmaps:
        m_Texture: {fileID: 0}
        m_Scale: {x: 1, y: 1}
        m_Offset: {x: 0, y: 0}
    - unity_LightmapsInd:
        m_Texture: {fileID: 0}
        m_Scale: {x: 1, y: 1}
        m_Offset: {x: 0, y: 0}
    - unity_ShadowMasks:
        m_Texture: {fileID: 0}
        m_Scale: {x: 1, y: 1}
        m_Offset: {x: 0, y: 0}
    m_Floats:
    - Vector1_8569ac1e84394a2bb959eaf65681387a: 0.434
    - Vector1_D15E557F: 0.1
    - Vector1_b46eaa6f0a1d4cbfbf2c3e05a0a830f1: 70
    m_Colors:
    - Color_0f8adf9c52f5427b912d1257acdc93e3: {r: 6.201808, g: 2.8795233, b: 2.4807231, a: 0}
    - Color_8a981fb11f8e439da7a4a8d5d9e81598: {r: 1.6470587, g: 0, b: 0.030958062, a: 0}
  m_BuildTextureStacks: []
