%YAML 1.1
%TAG !u! tag:unity3d.com,2011:
--- !u!21 &2100000
Material:
  serializedVersion: 6
  m_ObjectHideFlags: 0
  m_CorrespondingSourceObject: {fileID: 0}
  m_PrefabInstance: {fileID: 0}
  m_PrefabAsset: {fileID: 0}
  m_Name: MAT_Ivy_Mutant
  m_Shader: {fileID: -6465566751694194690, guid: a12febc7c3bff044f8ecb7ed56ecdf5e, type: 3}
  m_ShaderKeywords: 
  m_LightmapFlags: 4
  m_EnableInstancingVariants: 0
  m_DoubleSidedGI: 0
  m_CustomRenderQueue: 3001
  stringTagMap: {}
  disabledShaderPasses: []
  m_SavedProperties:
    serializedVersion: 3
    m_TexEnvs:
    - _SampleTexture2D_42e896166748b48bbf0a0cbed89355e3_Texture_1:
        m_Texture: {fileID: 2800000, guid: 8bfc1958e8ff83d468294fd7a2f8bc96, type: 3}
        m_Scale: {x: 1, y: 1}
        m_Offset: {x: 0, y: 0}
    - unity_Lightmaps:
        m_Texture: {fileID: 0}
        m_Scale: {x: 1, y: 1}
        m_Offset: {x: 0, y: 0}
    - unity_LightmapsInd:
        m_Texture: {fileID: 0}
        m_Scale: {x: 1, y: 1}
        m_Offset: {x: 0, y: 0}
    - unity_ShadowMasks:
        m_Texture: {fileID: 0}
        m_Scale: {x: 1, y: 1}
        m_Offset: {x: 0, y: 0}
    m_Floats:
    - Tree_Leaf_Dry: 0
    - Vector1_0eea3919d0364f86a505af964fb1ee4f: 0
    - Vector1_2b2d9b46fae1468383da88c619ce6708: 7.5
    - Vector1_3471bb37fabb47e4b55ff785253a1425: 0
    - Vector1_3ab32f9919f44102adc0543a329f881e: 0.304
    - Vector1_5f67dffeee044323a71530b229b4deeb: 0.2
    - Vector1_634393ac183c45228648ce08091b3783: 0
    - Vector1_81b5268127d447bdaba95b0ccef0148f: 1.25
    - Vector1_925570a79387484e91ca82301aa2f711: 2.08
    - Vector1_GrowingFactor: 0
    - Vector1_bf212398488444f0962140083fed3162: 0.732
    - Vector1_dbea79915e28443a8fa08f697bbeb41b: 0.0337
    m_Colors:
    - Color_5bdd785b1ed34136bf5822b3cbf9cce7: {r: 0.3584906, g: 0.3584906, b: 0.3584906, a: 0}
    - Color_a827b3b3b4254d5e83a0c6e9e82f6b85: {r: 1, g: 1, b: 1, a: 0}
  m_BuildTextureStacks: []
