%YAML 1.1
%TAG !u! tag:unity3d.com,2011:
--- !u!21 &2100000
Material:
  serializedVersion: 6
  m_ObjectHideFlags: 0
  m_CorrespondingSourceObject: {fileID: 0}
  m_PrefabInstance: {fileID: 0}
  m_PrefabAsset: {fileID: 0}
  m_Name: MAT_GrowingLeafSpecialTree
  m_Shader: {fileID: -6465566751694194690, guid: efb455a6fd443f644bd1a5fc98ea4db1, type: 3}
  m_ShaderKeywords: 
  m_LightmapFlags: 4
  m_EnableInstancingVariants: 0
  m_DoubleSidedGI: 0
  m_CustomRenderQueue: -1
  stringTagMap: {}
  disabledShaderPasses: []
  m_SavedProperties:
    serializedVersion: 3
    m_TexEnvs:
    - _SampleTexture2D_42e896166748b48bbf0a0cbed89355e3_Texture_1:
        m_Texture: {fileID: 2800000, guid: a23947510bd37394297341e72503778b, type: 3}
        m_Scale: {x: 1, y: 1}
        m_Offset: {x: 0, y: 0}
    - unity_Lightmaps:
        m_Texture: {fileID: 0}
        m_Scale: {x: 1, y: 1}
        m_Offset: {x: 0, y: 0}
    - unity_LightmapsInd:
        m_Texture: {fileID: 0}
        m_Scale: {x: 1, y: 1}
        m_Offset: {x: 0, y: 0}
    - unity_ShadowMasks:
        m_Texture: {fileID: 0}
        m_Scale: {x: 1, y: 1}
        m_Offset: {x: 0, y: 0}
    m_Floats:
    - Tree_Leaf_Dry: 0
    - Vector1_0eea3919d0364f86a505af964fb1ee4f: 0
    - Vector1_2b2d9b46fae1468383da88c619ce6708: 30.2
    - Vector1_3471bb37fabb47e4b55ff785253a1425: 0.59
    - Vector1_5f67dffeee044323a71530b229b4deeb: 0.6
    - Vector1_634393ac183c45228648ce08091b3783: 0.19
    - Vector1_81b5268127d447bdaba95b0ccef0148f: 1.4
    - Vector1_GrowingFactorLeaf: 1
    m_Colors:
    - Color_5bdd785b1ed34136bf5822b3cbf9cce7: {r: 0.35849056, g: 0.35849056, b: 0.35849056, a: 0}
  m_BuildTextureStacks: []
