%YAML 1.1
%TAG !u! tag:unity3d.com,2011:
--- !u!1001 &1455903160210155960
PrefabInstance:
  m_ObjectHideFlags: 0
  serializedVersion: 2
  m_Modification:
    m_TransformParent: {fileID: 0}
    m_Modifications:
    - target: {fileID: 2353664600798842810, guid: 80f0025056af60b439b5d4f5fbd6dd2b, type: 3}
      propertyPath: m_RootOrder
      value: 0
      objectReference: {fileID: 0}
    - target: {fileID: 2353664600798842810, guid: 80f0025056af60b439b5d4f5fbd6dd2b, type: 3}
      propertyPath: m_LocalPosition.x
      value: 0
      objectReference: {fileID: 0}
    - target: {fileID: 2353664600798842810, guid: 80f0025056af60b439b5d4f5fbd6dd2b, type: 3}
      propertyPath: m_LocalPosition.y
      value: 0
      objectReference: {fileID: 0}
    - target: {fileID: 2353664600798842810, guid: 80f0025056af60b439b5d4f5fbd6dd2b, type: 3}
      propertyPath: m_LocalPosition.z
      value: 0
      objectReference: {fileID: 0}
    - target: {fileID: 2353664600798842810, guid: 80f0025056af60b439b5d4f5fbd6dd2b, type: 3}
      propertyPath: m_LocalRotation.w
      value: 1
      objectReference: {fileID: 0}
    - target: {fileID: 2353664600798842810, guid: 80f0025056af60b439b5d4f5fbd6dd2b, type: 3}
      propertyPath: m_LocalRotation.x
      value: 0
      objectReference: {fileID: 0}
    - target: {fileID: 2353664600798842810, guid: 80f0025056af60b439b5d4f5fbd6dd2b, type: 3}
      propertyPath: m_LocalRotation.y
      value: 0
      objectReference: {fileID: 0}
    - target: {fileID: 2353664600798842810, guid: 80f0025056af60b439b5d4f5fbd6dd2b, type: 3}
      propertyPath: m_LocalRotation.z
      value: 0
      objectReference: {fileID: 0}
    - target: {fileID: 2353664600798842810, guid: 80f0025056af60b439b5d4f5fbd6dd2b, type: 3}
      propertyPath: m_LocalEulerAnglesHint.x
      value: 0
      objectReference: {fileID: 0}
    - target: {fileID: 2353664600798842810, guid: 80f0025056af60b439b5d4f5fbd6dd2b, type: 3}
      propertyPath: m_LocalEulerAnglesHint.y
      value: 0
      objectReference: {fileID: 0}
    - target: {fileID: 2353664600798842810, guid: 80f0025056af60b439b5d4f5fbd6dd2b, type: 3}
      propertyPath: m_LocalEulerAnglesHint.z
      value: 0
      objectReference: {fileID: 0}
    - target: {fileID: 3162149087675323648, guid: 80f0025056af60b439b5d4f5fbd6dd2b, type: 3}
      propertyPath: m_Name
      value: Sprinkler_DECOR
      objectReference: {fileID: 0}
    m_RemovedComponents:
    - {fileID: 1629389487050313821, guid: 80f0025056af60b439b5d4f5fbd6dd2b, type: 3}
    - {fileID: 4302286858289290716, guid: 80f0025056af60b439b5d4f5fbd6dd2b, type: 3}
    - {fileID: 3456508856574037788, guid: 80f0025056af60b439b5d4f5fbd6dd2b, type: 3}
    - {fileID: 6830789379791725529, guid: 80f0025056af60b439b5d4f5fbd6dd2b, type: 3}
    - {fileID: 8503841803444379992, guid: 80f0025056af60b439b5d4f5fbd6dd2b, type: 3}
  m_SourcePrefab: {fileID: 100100000, guid: 80f0025056af60b439b5d4f5fbd6dd2b, type: 3}
