%YAML 1.1
%TAG !u! tag:unity3d.com,2011:
--- !u!1001 &4554415063381206527
PrefabInstance:
  m_ObjectHideFlags: 0
  serializedVersion: 2
  m_Modification:
    m_TransformParent: {fileID: 470085679615053197}
    m_Modifications:
    - target: {fileID: 723934348100457026, guid: 12143951ac574b146ab6f1ca26b84c35, type: 3}
      propertyPath: m_Enabled
      value: 1
      objectReference: {fileID: 0}
    - target: {fileID: 723934348100457026, guid: 12143951ac574b146ab6f1ca26b84c35, type: 3}
      propertyPath: m_Materials.Array.data[0]
      value: 
      objectReference: {fileID: 0}
    - target: {fileID: 723934348100457026, guid: 12143951ac574b146ab6f1ca26b84c35, type: 3}
      propertyPath: m_Materials.Array.data[1]
      value: 
      objectReference: {fileID: 0}
    - target: {fileID: 723934348100457026, guid: 12143951ac574b146ab6f1ca26b84c35, type: 3}
      propertyPath: m_Materials.Array.data[2]
      value: 
      objectReference: {fileID: 0}
    - target: {fileID: 3557576055036841038, guid: 12143951ac574b146ab6f1ca26b84c35, type: 3}
      propertyPath: m_RootOrder
      value: 12
      objectReference: {fileID: 0}
    - target: {fileID: 3557576055036841038, guid: 12143951ac574b146ab6f1ca26b84c35, type: 3}
      propertyPath: m_LocalPosition.x
      value: 1.2665434
      objectReference: {fileID: 0}
    - target: {fileID: 3557576055036841038, guid: 12143951ac574b146ab6f1ca26b84c35, type: 3}
      propertyPath: m_LocalPosition.y
      value: 1.2342093
      objectReference: {fileID: 0}
    - target: {fileID: 3557576055036841038, guid: 12143951ac574b146ab6f1ca26b84c35, type: 3}
      propertyPath: m_LocalPosition.z
      value: -0.036895752
      objectReference: {fileID: 0}
    - target: {fileID: 3557576055036841038, guid: 12143951ac574b146ab6f1ca26b84c35, type: 3}
      propertyPath: m_LocalRotation.w
      value: 1
      objectReference: {fileID: 0}
    - target: {fileID: 3557576055036841038, guid: 12143951ac574b146ab6f1ca26b84c35, type: 3}
      propertyPath: m_LocalRotation.x
      value: -0
      objectReference: {fileID: 0}
    - target: {fileID: 3557576055036841038, guid: 12143951ac574b146ab6f1ca26b84c35, type: 3}
      propertyPath: m_LocalRotation.y
      value: -0
      objectReference: {fileID: 0}
    - target: {fileID: 3557576055036841038, guid: 12143951ac574b146ab6f1ca26b84c35, type: 3}
      propertyPath: m_LocalRotation.z
      value: -0
      objectReference: {fileID: 0}
    - target: {fileID: 3557576055036841038, guid: 12143951ac574b146ab6f1ca26b84c35, type: 3}
      propertyPath: m_LocalEulerAnglesHint.x
      value: 0
      objectReference: {fileID: 0}
    - target: {fileID: 3557576055036841038, guid: 12143951ac574b146ab6f1ca26b84c35, type: 3}
      propertyPath: m_LocalEulerAnglesHint.y
      value: 0
      objectReference: {fileID: 0}
    - target: {fileID: 3557576055036841038, guid: 12143951ac574b146ab6f1ca26b84c35, type: 3}
      propertyPath: m_LocalEulerAnglesHint.z
      value: 0
      objectReference: {fileID: 0}
    - target: {fileID: 4185212113240217332, guid: 12143951ac574b146ab6f1ca26b84c35, type: 3}
      propertyPath: m_Name
      value: Small_Shelf_Mushroom (1)
      objectReference: {fileID: 0}
    - target: {fileID: 5917802480572449627, guid: 12143951ac574b146ab6f1ca26b84c35, type: 3}
      propertyPath: m_Enabled
      value: 1
      objectReference: {fileID: 0}
    - target: {fileID: 5917802480572449627, guid: 12143951ac574b146ab6f1ca26b84c35, type: 3}
      propertyPath: m_Materials.Array.data[0]
      value: 
      objectReference: {fileID: 0}
    - target: {fileID: 5917802480572449627, guid: 12143951ac574b146ab6f1ca26b84c35, type: 3}
      propertyPath: m_Materials.Array.data[1]
      value: 
      objectReference: {fileID: 0}
    m_RemovedComponents: []
  m_SourcePrefab: {fileID: 100100000, guid: 12143951ac574b146ab6f1ca26b84c35, type: 3}
--- !u!1001 &4554415063770288368
PrefabInstance:
  m_ObjectHideFlags: 0
  serializedVersion: 2
  m_Modification:
    m_TransformParent: {fileID: 0}
    m_Modifications:
    - target: {fileID: 2694509713274277746, guid: 90bf11ccd3158474a879716e273d6ee3, type: 3}
      propertyPath: CollisionSound.WwiseObjectReference
      value: 
      objectReference: {fileID: 11400000, guid: 265417b4e7aa1004b8ae4abed8944dde, type: 2}
    - target: {fileID: 2694509713274277746, guid: 90bf11ccd3158474a879716e273d6ee3, type: 3}
      propertyPath: DestructionSound.WwiseObjectReference
      value: 
      objectReference: {fileID: 11400000, guid: 463cc1c6736b51e42b7c907598548fa0, type: 2}
    - target: {fileID: 3673051208332019655, guid: 90bf11ccd3158474a879716e273d6ee3, type: 3}
      propertyPath: m_Name
      value: Frame_Shelf_Long Variant
      objectReference: {fileID: 0}
    - target: {fileID: 3673051208332019655, guid: 90bf11ccd3158474a879716e273d6ee3, type: 3}
      propertyPath: m_IsActive
      value: 1
      objectReference: {fileID: 0}
    - target: {fileID: 4157557142846659965, guid: 90bf11ccd3158474a879716e273d6ee3, type: 3}
      propertyPath: m_RootOrder
      value: 0
      objectReference: {fileID: 0}
    - target: {fileID: 4157557142846659965, guid: 90bf11ccd3158474a879716e273d6ee3, type: 3}
      propertyPath: m_LocalPosition.x
      value: -10.516543
      objectReference: {fileID: 0}
    - target: {fileID: 4157557142846659965, guid: 90bf11ccd3158474a879716e273d6ee3, type: 3}
      propertyPath: m_LocalPosition.y
      value: 0.00000047683716
      objectReference: {fileID: 0}
    - target: {fileID: 4157557142846659965, guid: 90bf11ccd3158474a879716e273d6ee3, type: 3}
      propertyPath: m_LocalPosition.z
      value: 95.786896
      objectReference: {fileID: 0}
    - target: {fileID: 4157557142846659965, guid: 90bf11ccd3158474a879716e273d6ee3, type: 3}
      propertyPath: m_LocalRotation.w
      value: 1
      objectReference: {fileID: 0}
    - target: {fileID: 4157557142846659965, guid: 90bf11ccd3158474a879716e273d6ee3, type: 3}
      propertyPath: m_LocalRotation.x
      value: 0
      objectReference: {fileID: 0}
    - target: {fileID: 4157557142846659965, guid: 90bf11ccd3158474a879716e273d6ee3, type: 3}
      propertyPath: m_LocalRotation.y
      value: 0
      objectReference: {fileID: 0}
    - target: {fileID: 4157557142846659965, guid: 90bf11ccd3158474a879716e273d6ee3, type: 3}
      propertyPath: m_LocalRotation.z
      value: 0
      objectReference: {fileID: 0}
    - target: {fileID: 4157557142846659965, guid: 90bf11ccd3158474a879716e273d6ee3, type: 3}
      propertyPath: m_LocalEulerAnglesHint.x
      value: 0
      objectReference: {fileID: 0}
    - target: {fileID: 4157557142846659965, guid: 90bf11ccd3158474a879716e273d6ee3, type: 3}
      propertyPath: m_LocalEulerAnglesHint.y
      value: 0
      objectReference: {fileID: 0}
    - target: {fileID: 4157557142846659965, guid: 90bf11ccd3158474a879716e273d6ee3, type: 3}
      propertyPath: m_LocalEulerAnglesHint.z
      value: 0
      objectReference: {fileID: 0}
    m_RemovedComponents: []
  m_SourcePrefab: {fileID: 100100000, guid: 90bf11ccd3158474a879716e273d6ee3, type: 3}
--- !u!4 &470085679615053197 stripped
Transform:
  m_CorrespondingSourceObject: {fileID: 4157557142846659965, guid: 90bf11ccd3158474a879716e273d6ee3, type: 3}
  m_PrefabInstance: {fileID: 4554415063770288368}
  m_PrefabAsset: {fileID: 0}
--- !u!1001 &4554415063794121164
PrefabInstance:
  m_ObjectHideFlags: 0
  serializedVersion: 2
  m_Modification:
    m_TransformParent: {fileID: 470085679615053197}
    m_Modifications:
    - target: {fileID: 723934348100457026, guid: 12143951ac574b146ab6f1ca26b84c35, type: 3}
      propertyPath: m_Enabled
      value: 1
      objectReference: {fileID: 0}
    - target: {fileID: 723934348100457026, guid: 12143951ac574b146ab6f1ca26b84c35, type: 3}
      propertyPath: m_Materials.Array.data[0]
      value: 
      objectReference: {fileID: 0}
    - target: {fileID: 723934348100457026, guid: 12143951ac574b146ab6f1ca26b84c35, type: 3}
      propertyPath: m_Materials.Array.data[1]
      value: 
      objectReference: {fileID: 0}
    - target: {fileID: 723934348100457026, guid: 12143951ac574b146ab6f1ca26b84c35, type: 3}
      propertyPath: m_Materials.Array.data[2]
      value: 
      objectReference: {fileID: 0}
    - target: {fileID: 3557576055036841038, guid: 12143951ac574b146ab6f1ca26b84c35, type: 3}
      propertyPath: m_RootOrder
      value: 15
      objectReference: {fileID: 0}
    - target: {fileID: 3557576055036841038, guid: 12143951ac574b146ab6f1ca26b84c35, type: 3}
      propertyPath: m_LocalPosition.x
      value: -1.2334566
      objectReference: {fileID: 0}
    - target: {fileID: 3557576055036841038, guid: 12143951ac574b146ab6f1ca26b84c35, type: 3}
      propertyPath: m_LocalPosition.y
      value: 1.2342093
      objectReference: {fileID: 0}
    - target: {fileID: 3557576055036841038, guid: 12143951ac574b146ab6f1ca26b84c35, type: 3}
      propertyPath: m_LocalPosition.z
      value: -0.036895752
      objectReference: {fileID: 0}
    - target: {fileID: 3557576055036841038, guid: 12143951ac574b146ab6f1ca26b84c35, type: 3}
      propertyPath: m_LocalRotation.w
      value: 1
      objectReference: {fileID: 0}
    - target: {fileID: 3557576055036841038, guid: 12143951ac574b146ab6f1ca26b84c35, type: 3}
      propertyPath: m_LocalRotation.x
      value: -0
      objectReference: {fileID: 0}
    - target: {fileID: 3557576055036841038, guid: 12143951ac574b146ab6f1ca26b84c35, type: 3}
      propertyPath: m_LocalRotation.y
      value: -0
      objectReference: {fileID: 0}
    - target: {fileID: 3557576055036841038, guid: 12143951ac574b146ab6f1ca26b84c35, type: 3}
      propertyPath: m_LocalRotation.z
      value: -0
      objectReference: {fileID: 0}
    - target: {fileID: 3557576055036841038, guid: 12143951ac574b146ab6f1ca26b84c35, type: 3}
      propertyPath: m_LocalEulerAnglesHint.x
      value: 0
      objectReference: {fileID: 0}
    - target: {fileID: 3557576055036841038, guid: 12143951ac574b146ab6f1ca26b84c35, type: 3}
      propertyPath: m_LocalEulerAnglesHint.y
      value: 0
      objectReference: {fileID: 0}
    - target: {fileID: 3557576055036841038, guid: 12143951ac574b146ab6f1ca26b84c35, type: 3}
      propertyPath: m_LocalEulerAnglesHint.z
      value: 0
      objectReference: {fileID: 0}
    - target: {fileID: 4185212113240217332, guid: 12143951ac574b146ab6f1ca26b84c35, type: 3}
      propertyPath: m_Name
      value: Small_Shelf_Mushroom (2)
      objectReference: {fileID: 0}
    - target: {fileID: 5917802480572449627, guid: 12143951ac574b146ab6f1ca26b84c35, type: 3}
      propertyPath: m_Enabled
      value: 1
      objectReference: {fileID: 0}
    - target: {fileID: 5917802480572449627, guid: 12143951ac574b146ab6f1ca26b84c35, type: 3}
      propertyPath: m_Materials.Array.data[0]
      value: 
      objectReference: {fileID: 0}
    - target: {fileID: 5917802480572449627, guid: 12143951ac574b146ab6f1ca26b84c35, type: 3}
      propertyPath: m_Materials.Array.data[1]
      value: 
      objectReference: {fileID: 0}
    m_RemovedComponents: []
  m_SourcePrefab: {fileID: 100100000, guid: 12143951ac574b146ab6f1ca26b84c35, type: 3}
--- !u!1001 &4554415063857958721
PrefabInstance:
  m_ObjectHideFlags: 0
  serializedVersion: 2
  m_Modification:
    m_TransformParent: {fileID: 470085679615053197}
    m_Modifications:
    - target: {fileID: 723934348100457026, guid: 12143951ac574b146ab6f1ca26b84c35, type: 3}
      propertyPath: m_Enabled
      value: 1
      objectReference: {fileID: 0}
    - target: {fileID: 723934348100457026, guid: 12143951ac574b146ab6f1ca26b84c35, type: 3}
      propertyPath: m_Materials.Array.data[0]
      value: 
      objectReference: {fileID: 0}
    - target: {fileID: 723934348100457026, guid: 12143951ac574b146ab6f1ca26b84c35, type: 3}
      propertyPath: m_Materials.Array.data[1]
      value: 
      objectReference: {fileID: 0}
    - target: {fileID: 723934348100457026, guid: 12143951ac574b146ab6f1ca26b84c35, type: 3}
      propertyPath: m_Materials.Array.data[2]
      value: 
      objectReference: {fileID: 0}
    - target: {fileID: 3557576055036841038, guid: 12143951ac574b146ab6f1ca26b84c35, type: 3}
      propertyPath: m_RootOrder
      value: 14
      objectReference: {fileID: 0}
    - target: {fileID: 3557576055036841038, guid: 12143951ac574b146ab6f1ca26b84c35, type: 3}
      propertyPath: m_LocalPosition.x
      value: 0.016543388
      objectReference: {fileID: 0}
    - target: {fileID: 3557576055036841038, guid: 12143951ac574b146ab6f1ca26b84c35, type: 3}
      propertyPath: m_LocalPosition.y
      value: 1.2342093
      objectReference: {fileID: 0}
    - target: {fileID: 3557576055036841038, guid: 12143951ac574b146ab6f1ca26b84c35, type: 3}
      propertyPath: m_LocalPosition.z
      value: -0.036895752
      objectReference: {fileID: 0}
    - target: {fileID: 3557576055036841038, guid: 12143951ac574b146ab6f1ca26b84c35, type: 3}
      propertyPath: m_LocalRotation.w
      value: 1
      objectReference: {fileID: 0}
    - target: {fileID: 3557576055036841038, guid: 12143951ac574b146ab6f1ca26b84c35, type: 3}
      propertyPath: m_LocalRotation.x
      value: -0
      objectReference: {fileID: 0}
    - target: {fileID: 3557576055036841038, guid: 12143951ac574b146ab6f1ca26b84c35, type: 3}
      propertyPath: m_LocalRotation.y
      value: -0
      objectReference: {fileID: 0}
    - target: {fileID: 3557576055036841038, guid: 12143951ac574b146ab6f1ca26b84c35, type: 3}
      propertyPath: m_LocalRotation.z
      value: -0
      objectReference: {fileID: 0}
    - target: {fileID: 3557576055036841038, guid: 12143951ac574b146ab6f1ca26b84c35, type: 3}
      propertyPath: m_LocalEulerAnglesHint.x
      value: 0
      objectReference: {fileID: 0}
    - target: {fileID: 3557576055036841038, guid: 12143951ac574b146ab6f1ca26b84c35, type: 3}
      propertyPath: m_LocalEulerAnglesHint.y
      value: 0
      objectReference: {fileID: 0}
    - target: {fileID: 3557576055036841038, guid: 12143951ac574b146ab6f1ca26b84c35, type: 3}
      propertyPath: m_LocalEulerAnglesHint.z
      value: 0
      objectReference: {fileID: 0}
    - target: {fileID: 4185212113240217332, guid: 12143951ac574b146ab6f1ca26b84c35, type: 3}
      propertyPath: m_Name
      value: Small_Shelf_Mushroom (3)
      objectReference: {fileID: 0}
    - target: {fileID: 5917802480572449627, guid: 12143951ac574b146ab6f1ca26b84c35, type: 3}
      propertyPath: m_Enabled
      value: 1
      objectReference: {fileID: 0}
    - target: {fileID: 5917802480572449627, guid: 12143951ac574b146ab6f1ca26b84c35, type: 3}
      propertyPath: m_Materials.Array.data[0]
      value: 
      objectReference: {fileID: 0}
    - target: {fileID: 5917802480572449627, guid: 12143951ac574b146ab6f1ca26b84c35, type: 3}
      propertyPath: m_Materials.Array.data[1]
      value: 
      objectReference: {fileID: 0}
    m_RemovedComponents: []
  m_SourcePrefab: {fileID: 100100000, guid: 12143951ac574b146ab6f1ca26b84c35, type: 3}
--- !u!1001 &4554415063949372378
PrefabInstance:
  m_ObjectHideFlags: 0
  serializedVersion: 2
  m_Modification:
    m_TransformParent: {fileID: 470085679615053197}
    m_Modifications:
    - target: {fileID: 1403234284086272946, guid: 34e925a7d2789b449bb341f3ffcaf7ce, type: 3}
      propertyPath: m_Enabled
      value: 1
      objectReference: {fileID: 0}
    - target: {fileID: 1403234284086272946, guid: 34e925a7d2789b449bb341f3ffcaf7ce, type: 3}
      propertyPath: m_Materials.Array.data[0]
      value: 
      objectReference: {fileID: 0}
    - target: {fileID: 1403234284086272946, guid: 34e925a7d2789b449bb341f3ffcaf7ce, type: 3}
      propertyPath: m_Materials.Array.data[1]
      value: 
      objectReference: {fileID: 0}
    - target: {fileID: 3712205092438117084, guid: 34e925a7d2789b449bb341f3ffcaf7ce, type: 3}
      propertyPath: m_Name
      value: Medium_Shelf_MUSHROOM
      objectReference: {fileID: 0}
    - target: {fileID: 4093691185277423718, guid: 34e925a7d2789b449bb341f3ffcaf7ce, type: 3}
      propertyPath: m_RootOrder
      value: 13
      objectReference: {fileID: 0}
    - target: {fileID: 4093691185277423718, guid: 34e925a7d2789b449bb341f3ffcaf7ce, type: 3}
      propertyPath: m_LocalPosition.x
      value: -0.36135387
      objectReference: {fileID: 0}
    - target: {fileID: 4093691185277423718, guid: 34e925a7d2789b449bb341f3ffcaf7ce, type: 3}
      propertyPath: m_LocalPosition.y
      value: 2.4097543
      objectReference: {fileID: 0}
    - target: {fileID: 4093691185277423718, guid: 34e925a7d2789b449bb341f3ffcaf7ce, type: 3}
      propertyPath: m_LocalPosition.z
      value: -0.036895752
      objectReference: {fileID: 0}
    - target: {fileID: 4093691185277423718, guid: 34e925a7d2789b449bb341f3ffcaf7ce, type: 3}
      propertyPath: m_LocalRotation.w
      value: 1
      objectReference: {fileID: 0}
    - target: {fileID: 4093691185277423718, guid: 34e925a7d2789b449bb341f3ffcaf7ce, type: 3}
      propertyPath: m_LocalRotation.x
      value: -0
      objectReference: {fileID: 0}
    - target: {fileID: 4093691185277423718, guid: 34e925a7d2789b449bb341f3ffcaf7ce, type: 3}
      propertyPath: m_LocalRotation.y
      value: -0
      objectReference: {fileID: 0}
    - target: {fileID: 4093691185277423718, guid: 34e925a7d2789b449bb341f3ffcaf7ce, type: 3}
      propertyPath: m_LocalRotation.z
      value: -0
      objectReference: {fileID: 0}
    - target: {fileID: 4093691185277423718, guid: 34e925a7d2789b449bb341f3ffcaf7ce, type: 3}
      propertyPath: m_LocalEulerAnglesHint.x
      value: 0
      objectReference: {fileID: 0}
    - target: {fileID: 4093691185277423718, guid: 34e925a7d2789b449bb341f3ffcaf7ce, type: 3}
      propertyPath: m_LocalEulerAnglesHint.y
      value: 0
      objectReference: {fileID: 0}
    - target: {fileID: 4093691185277423718, guid: 34e925a7d2789b449bb341f3ffcaf7ce, type: 3}
      propertyPath: m_LocalEulerAnglesHint.z
      value: 0
      objectReference: {fileID: 0}
    - target: {fileID: 7306426048323248287, guid: 34e925a7d2789b449bb341f3ffcaf7ce, type: 3}
      propertyPath: m_Enabled
      value: 1
      objectReference: {fileID: 0}
    - target: {fileID: 7306426048323248287, guid: 34e925a7d2789b449bb341f3ffcaf7ce, type: 3}
      propertyPath: m_Materials.Array.data[0]
      value: 
      objectReference: {fileID: 0}
    - target: {fileID: 7306426048323248287, guid: 34e925a7d2789b449bb341f3ffcaf7ce, type: 3}
      propertyPath: m_Materials.Array.data[1]
      value: 
      objectReference: {fileID: 0}
    - target: {fileID: 7306426048323248287, guid: 34e925a7d2789b449bb341f3ffcaf7ce, type: 3}
      propertyPath: m_Materials.Array.data[2]
      value: 
      objectReference: {fileID: 0}
    m_RemovedComponents: []
  m_SourcePrefab: {fileID: 100100000, guid: 34e925a7d2789b449bb341f3ffcaf7ce, type: 3}
