%YAML 1.1
%TAG !u! tag:unity3d.com,2011:
--- !u!1001 &1878067971190904171
PrefabInstance:
  m_ObjectHideFlags: 0
  serializedVersion: 2
  m_Modification:
    m_TransformParent: {fileID: 0}
    m_Modifications:
    - target: {fileID: 2694509713274277746, guid: 90bf11ccd3158474a879716e273d6ee3, type: 3}
      propertyPath: CollisionSound.WwiseObjectReference
      value: 
      objectReference: {fileID: 11400000, guid: 265417b4e7aa1004b8ae4abed8944dde, type: 2}
    - target: {fileID: 2694509713274277746, guid: 90bf11ccd3158474a879716e273d6ee3, type: 3}
      propertyPath: DestructionSound.WwiseObjectReference
      value: 
      objectReference: {fileID: 11400000, guid: 463cc1c6736b51e42b7c907598548fa0, type: 2}
    - target: {fileID: 3673051208332019655, guid: 90bf11ccd3158474a879716e273d6ee3, type: 3}
      propertyPath: m_Name
      value: Frame_Shelf_Long_Barrel_2
      objectReference: {fileID: 0}
    - target: {fileID: 4157557142846659965, guid: 90bf11ccd3158474a879716e273d6ee3, type: 3}
      propertyPath: m_RootOrder
      value: 0
      objectReference: {fileID: 0}
    - target: {fileID: 4157557142846659965, guid: 90bf11ccd3158474a879716e273d6ee3, type: 3}
      propertyPath: m_LocalPosition.x
      value: 0
      objectReference: {fileID: 0}
    - target: {fileID: 4157557142846659965, guid: 90bf11ccd3158474a879716e273d6ee3, type: 3}
      propertyPath: m_LocalPosition.y
      value: 0
      objectReference: {fileID: 0}
    - target: {fileID: 4157557142846659965, guid: 90bf11ccd3158474a879716e273d6ee3, type: 3}
      propertyPath: m_LocalPosition.z
      value: 0
      objectReference: {fileID: 0}
    - target: {fileID: 4157557142846659965, guid: 90bf11ccd3158474a879716e273d6ee3, type: 3}
      propertyPath: m_LocalRotation.w
      value: 1
      objectReference: {fileID: 0}
    - target: {fileID: 4157557142846659965, guid: 90bf11ccd3158474a879716e273d6ee3, type: 3}
      propertyPath: m_LocalRotation.x
      value: 0
      objectReference: {fileID: 0}
    - target: {fileID: 4157557142846659965, guid: 90bf11ccd3158474a879716e273d6ee3, type: 3}
      propertyPath: m_LocalRotation.y
      value: 0
      objectReference: {fileID: 0}
    - target: {fileID: 4157557142846659965, guid: 90bf11ccd3158474a879716e273d6ee3, type: 3}
      propertyPath: m_LocalRotation.z
      value: 0
      objectReference: {fileID: 0}
    - target: {fileID: 4157557142846659965, guid: 90bf11ccd3158474a879716e273d6ee3, type: 3}
      propertyPath: m_LocalEulerAnglesHint.x
      value: 0
      objectReference: {fileID: 0}
    - target: {fileID: 4157557142846659965, guid: 90bf11ccd3158474a879716e273d6ee3, type: 3}
      propertyPath: m_LocalEulerAnglesHint.y
      value: 0
      objectReference: {fileID: 0}
    - target: {fileID: 4157557142846659965, guid: 90bf11ccd3158474a879716e273d6ee3, type: 3}
      propertyPath: m_LocalEulerAnglesHint.z
      value: 0
      objectReference: {fileID: 0}
    - target: {fileID: 7281237474904644992, guid: 90bf11ccd3158474a879716e273d6ee3, type: 3}
      propertyPath: m_IsActive
      value: 0
      objectReference: {fileID: 0}
    m_RemovedComponents: []
  m_SourcePrefab: {fileID: 100100000, guid: 90bf11ccd3158474a879716e273d6ee3, type: 3}
--- !u!4 &2567791686283167766 stripped
Transform:
  m_CorrespondingSourceObject: {fileID: 4157557142846659965, guid: 90bf11ccd3158474a879716e273d6ee3, type: 3}
  m_PrefabInstance: {fileID: 1878067971190904171}
  m_PrefabAsset: {fileID: 0}
--- !u!1001 &3201494834175221106
PrefabInstance:
  m_ObjectHideFlags: 0
  serializedVersion: 2
  m_Modification:
    m_TransformParent: {fileID: 2567791686283167766}
    m_Modifications:
    - target: {fileID: 388187894036575930, guid: 8578328e9acc06a45923e6aec20e4787, type: 3}
      propertyPath: m_RootOrder
      value: 13
      objectReference: {fileID: 0}
    - target: {fileID: 388187894036575930, guid: 8578328e9acc06a45923e6aec20e4787, type: 3}
      propertyPath: m_LocalPosition.x
      value: -0.5
      objectReference: {fileID: 0}
    - target: {fileID: 388187894036575930, guid: 8578328e9acc06a45923e6aec20e4787, type: 3}
      propertyPath: m_LocalPosition.y
      value: 0.13506818
      objectReference: {fileID: 0}
    - target: {fileID: 388187894036575930, guid: 8578328e9acc06a45923e6aec20e4787, type: 3}
      propertyPath: m_LocalPosition.z
      value: 0.21970248
      objectReference: {fileID: 0}
    - target: {fileID: 388187894036575930, guid: 8578328e9acc06a45923e6aec20e4787, type: 3}
      propertyPath: m_LocalRotation.w
      value: 1
      objectReference: {fileID: 0}
    - target: {fileID: 388187894036575930, guid: 8578328e9acc06a45923e6aec20e4787, type: 3}
      propertyPath: m_LocalRotation.x
      value: -0
      objectReference: {fileID: 0}
    - target: {fileID: 388187894036575930, guid: 8578328e9acc06a45923e6aec20e4787, type: 3}
      propertyPath: m_LocalRotation.y
      value: -0
      objectReference: {fileID: 0}
    - target: {fileID: 388187894036575930, guid: 8578328e9acc06a45923e6aec20e4787, type: 3}
      propertyPath: m_LocalRotation.z
      value: -0
      objectReference: {fileID: 0}
    - target: {fileID: 388187894036575930, guid: 8578328e9acc06a45923e6aec20e4787, type: 3}
      propertyPath: m_LocalEulerAnglesHint.x
      value: 0
      objectReference: {fileID: 0}
    - target: {fileID: 388187894036575930, guid: 8578328e9acc06a45923e6aec20e4787, type: 3}
      propertyPath: m_LocalEulerAnglesHint.y
      value: 0
      objectReference: {fileID: 0}
    - target: {fileID: 388187894036575930, guid: 8578328e9acc06a45923e6aec20e4787, type: 3}
      propertyPath: m_LocalEulerAnglesHint.z
      value: 0
      objectReference: {fileID: 0}
    - target: {fileID: 1020292337380125696, guid: 8578328e9acc06a45923e6aec20e4787, type: 3}
      propertyPath: m_Name
      value: Medium_Shelf_Close
      objectReference: {fileID: 0}
    - target: {fileID: 4237612622757047407, guid: 8578328e9acc06a45923e6aec20e4787, type: 3}
      propertyPath: m_Materials.Array.data[0]
      value: 
      objectReference: {fileID: 0}
    - target: {fileID: 4237612622757047407, guid: 8578328e9acc06a45923e6aec20e4787, type: 3}
      propertyPath: m_Materials.Array.data[1]
      value: 
      objectReference: {fileID: 0}
    - target: {fileID: 4237612622757047407, guid: 8578328e9acc06a45923e6aec20e4787, type: 3}
      propertyPath: m_Materials.Array.data[2]
      value: 
      objectReference: {fileID: 0}
    - target: {fileID: 7219679353613152313, guid: 8578328e9acc06a45923e6aec20e4787, type: 3}
      propertyPath: m_Materials.Array.data[0]
      value: 
      objectReference: {fileID: 0}
    - target: {fileID: 7219679353613152313, guid: 8578328e9acc06a45923e6aec20e4787, type: 3}
      propertyPath: m_Materials.Array.data[1]
      value: 
      objectReference: {fileID: 0}
    m_RemovedComponents: []
  m_SourcePrefab: {fileID: 100100000, guid: 8578328e9acc06a45923e6aec20e4787, type: 3}
--- !u!1001 &6411737175238808672
PrefabInstance:
  m_ObjectHideFlags: 0
  serializedVersion: 2
  m_Modification:
    m_TransformParent: {fileID: 2567791686283167766}
    m_Modifications:
    - target: {fileID: 433125761964134988, guid: ca0aad3f070528443966afa6289176da, type: 3}
      propertyPath: m_RootOrder
      value: 15
      objectReference: {fileID: 0}
    - target: {fileID: 433125761964134988, guid: ca0aad3f070528443966afa6289176da, type: 3}
      propertyPath: m_LocalPosition.x
      value: -1.25
      objectReference: {fileID: 0}
    - target: {fileID: 433125761964134988, guid: ca0aad3f070528443966afa6289176da, type: 3}
      propertyPath: m_LocalPosition.y
      value: 2.409754
      objectReference: {fileID: 0}
    - target: {fileID: 433125761964134988, guid: ca0aad3f070528443966afa6289176da, type: 3}
      propertyPath: m_LocalPosition.z
      value: 0
      objectReference: {fileID: 0}
    - target: {fileID: 433125761964134988, guid: ca0aad3f070528443966afa6289176da, type: 3}
      propertyPath: m_LocalRotation.w
      value: 1
      objectReference: {fileID: 0}
    - target: {fileID: 433125761964134988, guid: ca0aad3f070528443966afa6289176da, type: 3}
      propertyPath: m_LocalRotation.x
      value: -0
      objectReference: {fileID: 0}
    - target: {fileID: 433125761964134988, guid: ca0aad3f070528443966afa6289176da, type: 3}
      propertyPath: m_LocalRotation.y
      value: -0
      objectReference: {fileID: 0}
    - target: {fileID: 433125761964134988, guid: ca0aad3f070528443966afa6289176da, type: 3}
      propertyPath: m_LocalRotation.z
      value: -0
      objectReference: {fileID: 0}
    - target: {fileID: 433125761964134988, guid: ca0aad3f070528443966afa6289176da, type: 3}
      propertyPath: m_LocalEulerAnglesHint.x
      value: 0
      objectReference: {fileID: 0}
    - target: {fileID: 433125761964134988, guid: ca0aad3f070528443966afa6289176da, type: 3}
      propertyPath: m_LocalEulerAnglesHint.y
      value: 0
      objectReference: {fileID: 0}
    - target: {fileID: 433125761964134988, guid: ca0aad3f070528443966afa6289176da, type: 3}
      propertyPath: m_LocalEulerAnglesHint.z
      value: 0
      objectReference: {fileID: 0}
    - target: {fileID: 957319732132907254, guid: ca0aad3f070528443966afa6289176da, type: 3}
      propertyPath: m_Name
      value: Small_Shelf_BigMushroom_Variant
      objectReference: {fileID: 0}
    - target: {fileID: 4419763461167385664, guid: ca0aad3f070528443966afa6289176da, type: 3}
      propertyPath: m_Materials.Array.data[0]
      value: 
      objectReference: {fileID: 0}
    - target: {fileID: 4419763461167385664, guid: ca0aad3f070528443966afa6289176da, type: 3}
      propertyPath: m_Materials.Array.data[1]
      value: 
      objectReference: {fileID: 0}
    - target: {fileID: 4419763461167385664, guid: ca0aad3f070528443966afa6289176da, type: 3}
      propertyPath: m_Materials.Array.data[2]
      value: 
      objectReference: {fileID: 0}
    - target: {fileID: 7313154235798592857, guid: ca0aad3f070528443966afa6289176da, type: 3}
      propertyPath: m_Materials.Array.data[0]
      value: 
      objectReference: {fileID: 0}
    - target: {fileID: 7313154235798592857, guid: ca0aad3f070528443966afa6289176da, type: 3}
      propertyPath: m_Materials.Array.data[1]
      value: 
      objectReference: {fileID: 0}
    m_RemovedComponents: []
  m_SourcePrefab: {fileID: 100100000, guid: ca0aad3f070528443966afa6289176da, type: 3}
--- !u!1001 &7247167039806227462
PrefabInstance:
  m_ObjectHideFlags: 0
  serializedVersion: 2
  m_Modification:
    m_TransformParent: {fileID: 2567791686283167766}
    m_Modifications:
    - target: {fileID: 1349203210715556217, guid: b9782fa771cecf14e96f4107b5d71ee7, type: 3}
      propertyPath: m_RootOrder
      value: 12
      objectReference: {fileID: 0}
    - target: {fileID: 1349203210715556217, guid: b9782fa771cecf14e96f4107b5d71ee7, type: 3}
      propertyPath: m_LocalPosition.x
      value: 1.25
      objectReference: {fileID: 0}
    - target: {fileID: 1349203210715556217, guid: b9782fa771cecf14e96f4107b5d71ee7, type: 3}
      propertyPath: m_LocalPosition.y
      value: 0
      objectReference: {fileID: 0}
    - target: {fileID: 1349203210715556217, guid: b9782fa771cecf14e96f4107b5d71ee7, type: 3}
      propertyPath: m_LocalPosition.z
      value: 0.25
      objectReference: {fileID: 0}
    - target: {fileID: 1349203210715556217, guid: b9782fa771cecf14e96f4107b5d71ee7, type: 3}
      propertyPath: m_LocalRotation.w
      value: 1
      objectReference: {fileID: 0}
    - target: {fileID: 1349203210715556217, guid: b9782fa771cecf14e96f4107b5d71ee7, type: 3}
      propertyPath: m_LocalRotation.x
      value: -0
      objectReference: {fileID: 0}
    - target: {fileID: 1349203210715556217, guid: b9782fa771cecf14e96f4107b5d71ee7, type: 3}
      propertyPath: m_LocalRotation.y
      value: -0
      objectReference: {fileID: 0}
    - target: {fileID: 1349203210715556217, guid: b9782fa771cecf14e96f4107b5d71ee7, type: 3}
      propertyPath: m_LocalRotation.z
      value: -0
      objectReference: {fileID: 0}
    - target: {fileID: 1349203210715556217, guid: b9782fa771cecf14e96f4107b5d71ee7, type: 3}
      propertyPath: m_LocalEulerAnglesHint.x
      value: 0
      objectReference: {fileID: 0}
    - target: {fileID: 1349203210715556217, guid: b9782fa771cecf14e96f4107b5d71ee7, type: 3}
      propertyPath: m_LocalEulerAnglesHint.y
      value: 0
      objectReference: {fileID: 0}
    - target: {fileID: 1349203210715556217, guid: b9782fa771cecf14e96f4107b5d71ee7, type: 3}
      propertyPath: m_LocalEulerAnglesHint.z
      value: 0
      objectReference: {fileID: 0}
    - target: {fileID: 1869703611826844611, guid: b9782fa771cecf14e96f4107b5d71ee7, type: 3}
      propertyPath: m_Name
      value: M_DM_All_Explosiv_Barrel.001
      objectReference: {fileID: 0}
    m_RemovedComponents: []
  m_SourcePrefab: {fileID: 100100000, guid: b9782fa771cecf14e96f4107b5d71ee7, type: 3}
--- !u!1001 &7328035695205085139
PrefabInstance:
  m_ObjectHideFlags: 0
  serializedVersion: 2
  m_Modification:
    m_TransformParent: {fileID: 2567791686283167766}
    m_Modifications:
    - target: {fileID: 388187894036575930, guid: 8578328e9acc06a45923e6aec20e4787, type: 3}
      propertyPath: m_RootOrder
      value: 14
      objectReference: {fileID: 0}
    - target: {fileID: 388187894036575930, guid: 8578328e9acc06a45923e6aec20e4787, type: 3}
      propertyPath: m_LocalPosition.x
      value: 0.75
      objectReference: {fileID: 0}
    - target: {fileID: 388187894036575930, guid: 8578328e9acc06a45923e6aec20e4787, type: 3}
      propertyPath: m_LocalPosition.y
      value: 2.4097538
      objectReference: {fileID: 0}
    - target: {fileID: 388187894036575930, guid: 8578328e9acc06a45923e6aec20e4787, type: 3}
      propertyPath: m_LocalPosition.z
      value: 0
      objectReference: {fileID: 0}
    - target: {fileID: 388187894036575930, guid: 8578328e9acc06a45923e6aec20e4787, type: 3}
      propertyPath: m_LocalRotation.w
      value: 1
      objectReference: {fileID: 0}
    - target: {fileID: 388187894036575930, guid: 8578328e9acc06a45923e6aec20e4787, type: 3}
      propertyPath: m_LocalRotation.x
      value: -0
      objectReference: {fileID: 0}
    - target: {fileID: 388187894036575930, guid: 8578328e9acc06a45923e6aec20e4787, type: 3}
      propertyPath: m_LocalRotation.y
      value: -0
      objectReference: {fileID: 0}
    - target: {fileID: 388187894036575930, guid: 8578328e9acc06a45923e6aec20e4787, type: 3}
      propertyPath: m_LocalRotation.z
      value: -0
      objectReference: {fileID: 0}
    - target: {fileID: 388187894036575930, guid: 8578328e9acc06a45923e6aec20e4787, type: 3}
      propertyPath: m_LocalEulerAnglesHint.x
      value: 0
      objectReference: {fileID: 0}
    - target: {fileID: 388187894036575930, guid: 8578328e9acc06a45923e6aec20e4787, type: 3}
      propertyPath: m_LocalEulerAnglesHint.y
      value: 0
      objectReference: {fileID: 0}
    - target: {fileID: 388187894036575930, guid: 8578328e9acc06a45923e6aec20e4787, type: 3}
      propertyPath: m_LocalEulerAnglesHint.z
      value: 0
      objectReference: {fileID: 0}
    - target: {fileID: 1020292337380125696, guid: 8578328e9acc06a45923e6aec20e4787, type: 3}
      propertyPath: m_Name
      value: Medium_Shelf_Close (1)
      objectReference: {fileID: 0}
    - target: {fileID: 4237612622757047407, guid: 8578328e9acc06a45923e6aec20e4787, type: 3}
      propertyPath: m_Materials.Array.data[0]
      value: 
      objectReference: {fileID: 0}
    - target: {fileID: 4237612622757047407, guid: 8578328e9acc06a45923e6aec20e4787, type: 3}
      propertyPath: m_Materials.Array.data[1]
      value: 
      objectReference: {fileID: 0}
    - target: {fileID: 4237612622757047407, guid: 8578328e9acc06a45923e6aec20e4787, type: 3}
      propertyPath: m_Materials.Array.data[2]
      value: 
      objectReference: {fileID: 0}
    - target: {fileID: 7219679353613152313, guid: 8578328e9acc06a45923e6aec20e4787, type: 3}
      propertyPath: m_Materials.Array.data[0]
      value: 
      objectReference: {fileID: 0}
    - target: {fileID: 7219679353613152313, guid: 8578328e9acc06a45923e6aec20e4787, type: 3}
      propertyPath: m_Materials.Array.data[1]
      value: 
      objectReference: {fileID: 0}
    m_RemovedComponents: []
  m_SourcePrefab: {fileID: 100100000, guid: 8578328e9acc06a45923e6aec20e4787, type: 3}
