%YAML 1.1
%TAG !u! tag:unity3d.com,2011:
--- !u!1001 &300176246700319663
PrefabInstance:
  m_ObjectHideFlags: 0
  serializedVersion: 2
  m_Modification:
    m_TransformParent: {fileID: 0}
    m_Modifications:
    - target: {fileID: 871006445226493959, guid: 12b677b0d5efceb40917825c1e4705da, type: 3}
      propertyPath: ImpactSound.WwiseObjectReference
      value: 
      objectReference: {fileID: 11400000, guid: 715fc191aae9fae49a14f34cd71c4d9f, type: 2}
    - target: {fileID: 6936327080005081693, guid: 12b677b0d5efceb40917825c1e4705da, type: 3}
      propertyPath: m_RootOrder
      value: 0
      objectReference: {fileID: 0}
    - target: {fileID: 6936327080005081693, guid: 12b677b0d5efceb40917825c1e4705da, type: 3}
      propertyPath: m_LocalPosition.x
      value: 0
      objectReference: {fileID: 0}
    - target: {fileID: 6936327080005081693, guid: 12b677b0d5efceb40917825c1e4705da, type: 3}
      propertyPath: m_LocalPosition.y
      value: 0
      objectReference: {fileID: 0}
    - target: {fileID: 6936327080005081693, guid: 12b677b0d5efceb40917825c1e4705da, type: 3}
      propertyPath: m_LocalPosition.z
      value: 0
      objectReference: {fileID: 0}
    - target: {fileID: 6936327080005081693, guid: 12b677b0d5efceb40917825c1e4705da, type: 3}
      propertyPath: m_LocalRotation.w
      value: 1
      objectReference: {fileID: 0}
    - target: {fileID: 6936327080005081693, guid: 12b677b0d5efceb40917825c1e4705da, type: 3}
      propertyPath: m_LocalRotation.x
      value: 0
      objectReference: {fileID: 0}
    - target: {fileID: 6936327080005081693, guid: 12b677b0d5efceb40917825c1e4705da, type: 3}
      propertyPath: m_LocalRotation.y
      value: 0
      objectReference: {fileID: 0}
    - target: {fileID: 6936327080005081693, guid: 12b677b0d5efceb40917825c1e4705da, type: 3}
      propertyPath: m_LocalRotation.z
      value: 0
      objectReference: {fileID: 0}
    - target: {fileID: 6936327080005081693, guid: 12b677b0d5efceb40917825c1e4705da, type: 3}
      propertyPath: m_LocalEulerAnglesHint.x
      value: 0
      objectReference: {fileID: 0}
    - target: {fileID: 6936327080005081693, guid: 12b677b0d5efceb40917825c1e4705da, type: 3}
      propertyPath: m_LocalEulerAnglesHint.y
      value: 0
      objectReference: {fileID: 0}
    - target: {fileID: 6936327080005081693, guid: 12b677b0d5efceb40917825c1e4705da, type: 3}
      propertyPath: m_LocalEulerAnglesHint.z
      value: 0
      objectReference: {fileID: 0}
    - target: {fileID: 7712722320607953127, guid: 12b677b0d5efceb40917825c1e4705da, type: 3}
      propertyPath: m_Name
      value: Frame_Shelf_Short_MUSHROOM
      objectReference: {fileID: 0}
    - target: {fileID: 8530992418976605519, guid: 12b677b0d5efceb40917825c1e4705da, type: 3}
      propertyPath: m_IsActive
      value: 0
      objectReference: {fileID: 0}
    m_RemovedComponents: []
  m_SourcePrefab: {fileID: 100100000, guid: 12b677b0d5efceb40917825c1e4705da, type: 3}
--- !u!4 &7235235172096227826 stripped
Transform:
  m_CorrespondingSourceObject: {fileID: 6936327080005081693, guid: 12b677b0d5efceb40917825c1e4705da, type: 3}
  m_PrefabInstance: {fileID: 300176246700319663}
  m_PrefabAsset: {fileID: 0}
--- !u!1001 &5957324253036986241
PrefabInstance:
  m_ObjectHideFlags: 0
  serializedVersion: 2
  m_Modification:
    m_TransformParent: {fileID: 7235235172096227826}
    m_Modifications:
    - target: {fileID: 1615286480189356813, guid: de0b592ea517f3e44bd0657f20b17f96, type: 3}
      propertyPath: m_Name
      value: Medium_Shelf_MUSHROOM_Explo
      objectReference: {fileID: 0}
    - target: {fileID: 2099089546797719991, guid: de0b592ea517f3e44bd0657f20b17f96, type: 3}
      propertyPath: m_RootOrder
      value: 12
      objectReference: {fileID: 0}
    - target: {fileID: 2099089546797719991, guid: de0b592ea517f3e44bd0657f20b17f96, type: 3}
      propertyPath: m_LocalPosition.x
      value: 0
      objectReference: {fileID: 0}
    - target: {fileID: 2099089546797719991, guid: de0b592ea517f3e44bd0657f20b17f96, type: 3}
      propertyPath: m_LocalPosition.y
      value: 1.2342088
      objectReference: {fileID: 0}
    - target: {fileID: 2099089546797719991, guid: de0b592ea517f3e44bd0657f20b17f96, type: 3}
      propertyPath: m_LocalPosition.z
      value: 0
      objectReference: {fileID: 0}
    - target: {fileID: 2099089546797719991, guid: de0b592ea517f3e44bd0657f20b17f96, type: 3}
      propertyPath: m_LocalRotation.w
      value: 1
      objectReference: {fileID: 0}
    - target: {fileID: 2099089546797719991, guid: de0b592ea517f3e44bd0657f20b17f96, type: 3}
      propertyPath: m_LocalRotation.x
      value: -0
      objectReference: {fileID: 0}
    - target: {fileID: 2099089546797719991, guid: de0b592ea517f3e44bd0657f20b17f96, type: 3}
      propertyPath: m_LocalRotation.y
      value: -0
      objectReference: {fileID: 0}
    - target: {fileID: 2099089546797719991, guid: de0b592ea517f3e44bd0657f20b17f96, type: 3}
      propertyPath: m_LocalRotation.z
      value: -0
      objectReference: {fileID: 0}
    - target: {fileID: 2099089546797719991, guid: de0b592ea517f3e44bd0657f20b17f96, type: 3}
      propertyPath: m_LocalEulerAnglesHint.x
      value: 0
      objectReference: {fileID: 0}
    - target: {fileID: 2099089546797719991, guid: de0b592ea517f3e44bd0657f20b17f96, type: 3}
      propertyPath: m_LocalEulerAnglesHint.y
      value: 0
      objectReference: {fileID: 0}
    - target: {fileID: 2099089546797719991, guid: de0b592ea517f3e44bd0657f20b17f96, type: 3}
      propertyPath: m_LocalEulerAnglesHint.z
      value: 0
      objectReference: {fileID: 0}
    - target: {fileID: 3933765109232063075, guid: de0b592ea517f3e44bd0657f20b17f96, type: 3}
      propertyPath: m_Materials.Array.data[0]
      value: 
      objectReference: {fileID: 0}
    - target: {fileID: 3933765109232063075, guid: de0b592ea517f3e44bd0657f20b17f96, type: 3}
      propertyPath: m_Materials.Array.data[1]
      value: 
      objectReference: {fileID: 0}
    - target: {fileID: 4650920323249672526, guid: de0b592ea517f3e44bd0657f20b17f96, type: 3}
      propertyPath: m_Materials.Array.data[0]
      value: 
      objectReference: {fileID: 0}
    - target: {fileID: 4650920323249672526, guid: de0b592ea517f3e44bd0657f20b17f96, type: 3}
      propertyPath: m_Materials.Array.data[1]
      value: 
      objectReference: {fileID: 0}
    - target: {fileID: 4650920323249672526, guid: de0b592ea517f3e44bd0657f20b17f96, type: 3}
      propertyPath: m_Materials.Array.data[2]
      value: 
      objectReference: {fileID: 0}
    m_RemovedComponents: []
  m_SourcePrefab: {fileID: 100100000, guid: de0b592ea517f3e44bd0657f20b17f96, type: 3}
