%YAML 1.1
%TAG !u! tag:unity3d.com,2011:
--- !u!21 &2100000
Material:
  serializedVersion: 6
  m_ObjectHideFlags: 0
  m_CorrespondingSourceObject: {fileID: 0}
  m_PrefabInstance: {fileID: 0}
  m_PrefabAsset: {fileID: 0}
  m_Name: MAT_GodRaysMenu
  m_Shader: {fileID: -6465566751694194690, guid: 33abdad388289df428b7397fd7e9f557, type: 3}
  m_ShaderKeywords: 
  m_LightmapFlags: 4
  m_EnableInstancingVariants: 0
  m_DoubleSidedGI: 0
  m_CustomRenderQueue: 3004
  stringTagMap: {}
  disabledShaderPasses: []
  m_SavedProperties:
    serializedVersion: 3
    m_TexEnvs:
    - _Texture2DAsset_82cca2b167234bebac2e85b43d20a030_Out_0:
        m_Texture: {fileID: 2800000, guid: f1a7bd1d64b706d489877cc8e7d6d10a, type: 3}
        m_Scale: {x: 1, y: 1}
        m_Offset: {x: 0, y: 0}
    - unity_Lightmaps:
        m_Texture: {fileID: 0}
        m_Scale: {x: 1, y: 1}
        m_Offset: {x: 0, y: 0}
    - unity_LightmapsInd:
        m_Texture: {fileID: 0}
        m_Scale: {x: 1, y: 1}
        m_Offset: {x: 0, y: 0}
    - unity_ShadowMasks:
        m_Texture: {fileID: 0}
        m_Scale: {x: 1, y: 1}
        m_Offset: {x: 0, y: 0}
    m_Floats:
    - Vector1_03883f3d00e0449f8d3bcf0e2cad0ede: 1
    - Vector1_2167654df345455a93753e35d417d1bb: 0.113
    - Vector1_2328cb7afa80452fbad28b2b7e7a5f57: 0
    - Vector1_4bbd3e35a3be40cb85120f6fbf52b4f7: 0.605
    - Vector1_4d92709eb4ac4bcc898ac44e61b18b06: 0
    - Vector1_58b1749aa41e4f6c8e5a0c5700a7c68d: 0
    - Vector1_87878dd4f7494175a292988c4b3dc774: 0.233
    - Vector1_8992256f42774bd080c700eb6bc317a3: 2.42
    - Vector1_8a2be1aa4b414659b09622b0e932202b: 2.15
    - Vector1_9c9ff702b4e94a78be8998c8cf70242a: 0.414
    - Vector1_a56392bef37c43c4b72ce11fabaa30f0: 1
    - Vector1_a671ffd0723340a4bc412be7aa49ff81: 0.9
    - Vector1_b6de3c3edc5a4349b11f287c18d35e98: 1.7
    - Vector1_c99bbae5c69b47f0828a8259e514f00c: 0
    - Vector1_da68ef667bea47eca239d924a95d423d: 20.7
    - Vector1_e946d961e9f64c4590ba183cf65feac0: 1
    m_Colors:
    - Color_40d20eb07d16429e9450b56fab401fe8: {r: 0.7264151, g: 0.7264151, b: 0.7264151, a: 0}
  m_BuildTextureStacks: []
