%YAML 1.1
%TAG !u! tag:unity3d.com,2011:
--- !u!21 &2100000
Material:
  serializedVersion: 6
  m_ObjectHideFlags: 0
  m_CorrespondingSourceObject: {fileID: 0}
  m_PrefabInstance: {fileID: 0}
  m_PrefabAsset: {fileID: 0}
  m_Name: MAT_LaserFx
  m_Shader: {fileID: -6465566751694194690, guid: a57901404ee53c044a9a547bd5d4e479, type: 3}
  m_ShaderKeywords: 
  m_LightmapFlags: 4
  m_EnableInstancingVariants: 0
  m_DoubleSidedGI: 0
  m_CustomRenderQueue: 3001
  stringTagMap: {}
  disabledShaderPasses: []
  m_SavedProperties:
    serializedVersion: 3
    m_TexEnvs:
    - unity_Lightmaps:
        m_Texture: {fileID: 0}
        m_Scale: {x: 1, y: 1}
        m_Offset: {x: 0, y: 0}
    - unity_LightmapsInd:
        m_Texture: {fileID: 0}
        m_Scale: {x: 1, y: 1}
        m_Offset: {x: 0, y: 0}
    - unity_ShadowMasks:
        m_Texture: {fileID: 0}
        m_Scale: {x: 1, y: 1}
        m_Offset: {x: 0, y: 0}
    m_Floats:
    - Vector1_0cd35cd47d1d42cfbddafcd52844b934: 0.344
    - Vector1_20ebfbebe99b4f20935ce6503aaee7b1: 2.1
    - Vector1_acf578b412414442921590b3720da14c: 5
    - Vector1_b1588e0057f44cd3ae01ce30978e89ff: 0.5
    - Vector1_be6cf49d93414340af0db7771481daaf: -2.14
    - Vector1_db9ce39cfc1245a2a8f7257a1cb726d5: 8.6
    m_Colors: []
  m_BuildTextureStacks: []
