%YAML 1.1
%TAG !u! tag:unity3d.com,2011:
--- !u!21 &2100000
Material:
  serializedVersion: 6
  m_ObjectHideFlags: 0
  m_CorrespondingSourceObject: {fileID: 0}
  m_PrefabInstance: {fileID: 0}
  m_PrefabAsset: {fileID: 0}
  m_Name: ShadowMoving
  m_Shader: {fileID: -6465566751694194690, guid: 284920357c22aeb4b9b94effae801db5, type: 3}
  m_ShaderKeywords: 
  m_LightmapFlags: 4
  m_EnableInstancingVariants: 0
  m_DoubleSidedGI: 0
  m_CustomRenderQueue: 3002
  stringTagMap: {}
  disabledShaderPasses: []
  m_SavedProperties:
    serializedVersion: 3
    m_TexEnvs:
    - _SampleTexture2D_3cb7ef6e336b4c0084bca94fc0285502_Texture_1:
        m_Texture: {fileID: 2800000, guid: 92033f1d3f3d44747aae20cfc0c924bc, type: 3}
        m_Scale: {x: 1, y: 1}
        m_Offset: {x: 0, y: 0}
    - _SampleTexture2D_42e896166748b48bbf0a0cbed89355e3_Texture_1:
        m_Texture: {fileID: 2800000, guid: 719a554eb3950554997885fc91277ef6, type: 3}
        m_Scale: {x: 1, y: 1}
        m_Offset: {x: 0, y: 0}
    - _SampleTexture2D_68f088bc475f404ab0ef709abdc42a0f_Texture_1:
        m_Texture: {fileID: 2800000, guid: 719a554eb3950554997885fc91277ef6, type: 3}
        m_Scale: {x: 1, y: 1}
        m_Offset: {x: 0, y: 0}
    - _SampleTexture2D_b62711ab9a9141178c45f7764753e762_Texture_1:
        m_Texture: {fileID: 2800000, guid: 92033f1d3f3d44747aae20cfc0c924bc, type: 3}
        m_Scale: {x: 1, y: 1}
        m_Offset: {x: 0, y: 0}
    - unity_Lightmaps:
        m_Texture: {fileID: 0}
        m_Scale: {x: 1, y: 1}
        m_Offset: {x: 0, y: 0}
    - unity_LightmapsInd:
        m_Texture: {fileID: 0}
        m_Scale: {x: 1, y: 1}
        m_Offset: {x: 0, y: 0}
    - unity_ShadowMasks:
        m_Texture: {fileID: 0}
        m_Scale: {x: 1, y: 1}
        m_Offset: {x: 0, y: 0}
    m_Floats:
    - Vector1_0eea3919d0364f86a505af964fb1ee4f: 0
    - Vector1_2b2d9b46fae1468383da88c619ce6708: 7
    - Vector1_3471bb37fabb47e4b55ff785253a1425: 0.5
    - Vector1_634393ac183c45228648ce08091b3783: 0.5
    - Vector1_9825031395c948d99442c40ca470572c: 0
    - Vector1_da0bd04fac334eed855ccf96d2d070cb: 0
    - Vector1_e770abe596f34fb9b15946839bab3a82: 0
    - Vector1_ea2df5f7c4e946ea99e6c92bac526089: 0.014
    - Vector1_growingleaf: 0.462
    m_Colors:
    - Vector2_ef60101522404eea9379da63caccdd72: {r: 0.46, g: 56.91, b: 0.15, a: -0.71}
  m_BuildTextureStacks: []
