%YAML 1.1
%TAG !u! tag:unity3d.com,2011:
--- !u!114 &2276321827104900168
MonoBehaviour:
  m_ObjectHideFlags: 0
  m_CorrespondingSourceObject: {fileID: 0}
  m_PrefabInstance: {fileID: 0}
  m_PrefabAsset: {fileID: 0}
  m_GameObject: {fileID: 311894271842440176}
  m_Enabled: 1
  m_EditorHideFlags: 0
  m_Script: {fileID: 11500000, guid: aeace4653d12b184eb0b08e307fd740f, type: 3}
  m_Name: 
  m_EditorClassIdentifier: 
  m_listeners:
    initialListenerList: []
    useDefaultListeners: 1
  isEnvironmentAware: 1
  isStaticObject: 0
  m_positionOffsetData:
    KeepMe: 0
    positionOffset: {x: 0, y: 0, z: 0}
  m_posOffsetData: {fileID: 0}
  listenerMask: 1
--- !u!1001 &6727774209517884455
PrefabInstance:
  m_ObjectHideFlags: 0
  serializedVersion: 2
  m_Modification:
    m_TransformParent: {fileID: 0}
    m_Modifications:
    - target: {fileID: 2484648798723345, guid: 8c9382874280e124da0dd3d0f510207e, type: 3}
      propertyPath: m_LocalScale.y
      value: 1
      objectReference: {fileID: 0}
    - target: {fileID: 2484648798723345, guid: 8c9382874280e124da0dd3d0f510207e, type: 3}
      propertyPath: m_LocalPosition.x
      value: 2
      objectReference: {fileID: 0}
    - target: {fileID: 2484648798723345, guid: 8c9382874280e124da0dd3d0f510207e, type: 3}
      propertyPath: m_LocalPosition.y
      value: 0
      objectReference: {fileID: 0}
    - target: {fileID: 3262279288589791121, guid: 8c9382874280e124da0dd3d0f510207e, type: 3}
      propertyPath: m_Mesh
      value: 
      objectReference: {fileID: 4793068522696480712, guid: 64de439c2dc029145930ab7796ec1340, type: 3}
    - target: {fileID: 3528510374073651058, guid: 8c9382874280e124da0dd3d0f510207e, type: 3}
      propertyPath: data.WwiseObjectReference
      value: 
      objectReference: {fileID: 11400000, guid: c4285bbd5a0ce8a499b6fb6b5985755b, type: 2}
    - target: {fileID: 3734047815396539181, guid: 8c9382874280e124da0dd3d0f510207e, type: 3}
      propertyPath: m_IsActive
      value: 0
      objectReference: {fileID: 0}
    - target: {fileID: 5785836351867323916, guid: 8c9382874280e124da0dd3d0f510207e, type: 3}
      propertyPath: m_Materials.Array.data[0]
      value: 
      objectReference: {fileID: 0}
    - target: {fileID: 5927326873142730093, guid: 8c9382874280e124da0dd3d0f510207e, type: 3}
      propertyPath: m_RootOrder
      value: 0
      objectReference: {fileID: 0}
    - target: {fileID: 5927326873142730093, guid: 8c9382874280e124da0dd3d0f510207e, type: 3}
      propertyPath: m_LocalPosition.x
      value: 0
      objectReference: {fileID: 0}
    - target: {fileID: 5927326873142730093, guid: 8c9382874280e124da0dd3d0f510207e, type: 3}
      propertyPath: m_LocalPosition.y
      value: 0
      objectReference: {fileID: 0}
    - target: {fileID: 5927326873142730093, guid: 8c9382874280e124da0dd3d0f510207e, type: 3}
      propertyPath: m_LocalPosition.z
      value: 0
      objectReference: {fileID: 0}
    - target: {fileID: 5927326873142730093, guid: 8c9382874280e124da0dd3d0f510207e, type: 3}
      propertyPath: m_LocalRotation.w
      value: 1
      objectReference: {fileID: 0}
    - target: {fileID: 5927326873142730093, guid: 8c9382874280e124da0dd3d0f510207e, type: 3}
      propertyPath: m_LocalRotation.x
      value: 0
      objectReference: {fileID: 0}
    - target: {fileID: 5927326873142730093, guid: 8c9382874280e124da0dd3d0f510207e, type: 3}
      propertyPath: m_LocalRotation.y
      value: 0
      objectReference: {fileID: 0}
    - target: {fileID: 5927326873142730093, guid: 8c9382874280e124da0dd3d0f510207e, type: 3}
      propertyPath: m_LocalRotation.z
      value: 0
      objectReference: {fileID: 0}
    - target: {fileID: 5927326873142730093, guid: 8c9382874280e124da0dd3d0f510207e, type: 3}
      propertyPath: m_LocalEulerAnglesHint.x
      value: 0
      objectReference: {fileID: 0}
    - target: {fileID: 5927326873142730093, guid: 8c9382874280e124da0dd3d0f510207e, type: 3}
      propertyPath: m_LocalEulerAnglesHint.y
      value: 0
      objectReference: {fileID: 0}
    - target: {fileID: 5927326873142730093, guid: 8c9382874280e124da0dd3d0f510207e, type: 3}
      propertyPath: m_LocalEulerAnglesHint.z
      value: 0
      objectReference: {fileID: 0}
    - target: {fileID: 6415879938233911255, guid: 8c9382874280e124da0dd3d0f510207e, type: 3}
      propertyPath: m_Name
      value: Wall_Fan
      objectReference: {fileID: 0}
    - target: {fileID: 6788141653070282290, guid: 8c9382874280e124da0dd3d0f510207e, type: 3}
      propertyPath: m_LocalPosition.x
      value: -0.5
      objectReference: {fileID: 0}
    - target: {fileID: 9056001092041936393, guid: 8c9382874280e124da0dd3d0f510207e, type: 3}
      propertyPath: m_Mesh
      value: 
      objectReference: {fileID: 7717985302176881820, guid: 64de439c2dc029145930ab7796ec1340, type: 3}
    m_RemovedComponents: []
  m_SourcePrefab: {fileID: 100100000, guid: 8c9382874280e124da0dd3d0f510207e, type: 3}
--- !u!1 &311894271842440176 stripped
GameObject:
  m_CorrespondingSourceObject: {fileID: 6415879938233911255, guid: 8c9382874280e124da0dd3d0f510207e, type: 3}
  m_PrefabInstance: {fileID: 6727774209517884455}
  m_PrefabAsset: {fileID: 0}
